wave.vcd
$date
     Feb 24, 2017       18:00:33
$end

$version
 SystemC 2.3.1-Accellera --- Feb 11 2017 14:36:57
$end

$timescale
     1 ps
$end

$scope module SystemC $end
$var real    1  aaaaa  time       $end
$var wire    1  aaaab  server_clock       $end
$var wire    1  aaaac  robot_clock       $end
$var wire    1  aaaad  sensor_clock       $end
$var wire    1  aaaae  human_clock       $end
$var wire   32  aaaaf  robot0.direction [31:0]  $end
$var real    1  aaaag  robot0.location(0)       $end
$var real    1  aaaah  robot0.location(1)       $end
$var wire   32  aaaai  human0.direction [31:0]  $end
$var real    1  aaaaj  human0.location(0)       $end
$var real    1  aaaak  human0.location(1)       $end
$var wire   32  aaaal  human1.direction [31:0]  $end
$var real    1  aaaam  human1.location(0)       $end
$var real    1  aaaan  human1.location(1)       $end
$var wire    1  aaaao  obstacle       $end
$var wire    1  aaaap  stop       $end
$var wire   32  aaaaq  direction [31:0]  $end
$upscope $end
$enddefinitions  $end

$comment
All initial values are dumped below at time 0 sec = 0 timescale units.
$end

$dumpvars
r0 aaaaa
0aaaab
0aaaac
0aaaad
1aaaae
b1 aaaaf
r6.5 aaaag
r-0.8299999833106995 aaaah
b0 aaaai
r6.5 aaaaj
r-0.5 aaaak
b0 aaaal
r6.5 aaaam
r-3.5 aaaan
0aaaao
1aaaap
b0 aaaaq
$end

#10000
0aaaae

#20000
1aaaad

#30000
0aaaad

#40000
1aaaab
0aaaap
b1 aaaaq

#50000
0aaaab

#60000
1aaaac

#70000
0aaaac

#80000
r0.05000000074505806 aaaaa
1aaaae
r-0.8799999952316284 aaaah
b11001100110011001100110011001100 aaaai
r6.474999904632568 aaaaj
b11001100110011001100110011001100 aaaal
r-3.424999952316284 aaaan

#90000
0aaaae

#100000
1aaaad

#110000
0aaaad

#120000
1aaaab

#130000
0aaaab

#140000
1aaaac

#150000
0aaaac

#160000
r0.1000000014901161 aaaaa
1aaaae
r-0.9300000071525574 aaaah
r6.449999809265137 aaaaj
r-3.349999904632568 aaaan

#170000
0aaaae

#180000
1aaaad

#190000
0aaaad

#200000
1aaaab

#210000
0aaaab

#220000
1aaaac

#230000
0aaaac

#240000
r0.1500000059604645 aaaaa
1aaaae
r-0.9800000190734863 aaaah
r6.424999713897705 aaaaj
r-3.274999856948853 aaaan

#250000
0aaaae

#260000
1aaaad

#270000
0aaaad

#280000
1aaaab

#290000
0aaaab

#300000
1aaaac

#310000
0aaaac

#320000
r0.2000000029802322 aaaaa
1aaaae
r-1.029999971389771 aaaah
r6.399999618530273 aaaaj
r-3.199999809265137 aaaan

#330000
0aaaae

#340000
1aaaad

#350000
0aaaad

#360000
1aaaab

#370000
0aaaab

#380000
1aaaac

#390000
0aaaac

#400000
r0.25 aaaaa
1aaaae
r-1.079999923706055 aaaah
r6.374999523162842 aaaaj
r-3.124999761581421 aaaan

#410000
0aaaae

#420000
1aaaad

#430000
0aaaad

#440000
1aaaab

#450000
0aaaab

#460000
1aaaac

#470000
0aaaac

#480000
r0.300000011920929 aaaaa
1aaaae
r-1.129999876022339 aaaah
r6.34999942779541 aaaaj
r-3.049999713897705 aaaan

#490000
0aaaae

#500000
1aaaad

#510000
0aaaad

#520000
1aaaab

#530000
0aaaab

#540000
1aaaac

#550000
0aaaac

#560000
r0.3500000238418579 aaaaa
1aaaae
r-1.179999828338623 aaaah
r6.324999332427979 aaaaj
r-2.974999666213989 aaaan

#570000
0aaaae

#580000
1aaaad

#590000
0aaaad

#600000
1aaaab

#610000
0aaaab

#620000
1aaaac

#630000
0aaaac

#640000
r0.4000000357627869 aaaaa
1aaaae
r-1.229999780654907 aaaah
r6.299999237060547 aaaaj
r-2.899999618530273 aaaan

#650000
0aaaae

#660000
1aaaad

#670000
0aaaad

#680000
1aaaab

#690000
0aaaab

#700000
1aaaac

#710000
0aaaac

#720000
r0.4500000476837158 aaaaa
1aaaae
r-1.279999732971191 aaaah
r6.274999141693115 aaaaj
r-2.824999570846558 aaaan

#730000
0aaaae

#740000
1aaaad

#750000
0aaaad

#760000
1aaaab

#770000
0aaaab

#780000
1aaaac

#790000
0aaaac

#800000
r0.5000000596046448 aaaaa
1aaaae
r-1.329999685287476 aaaah
r6.249999046325684 aaaaj
r-2.749999523162842 aaaan

#810000
0aaaae

#820000
1aaaad

#830000
0aaaad

#840000
1aaaab

#850000
0aaaab

#860000
1aaaac

#870000
0aaaac

#880000
r0.5500000715255737 aaaaa
1aaaae
r-1.37999963760376 aaaah
r6.224998950958252 aaaaj
r-2.674999475479126 aaaan

#890000
0aaaae

#900000
1aaaad

#910000
0aaaad

#920000
1aaaab

#930000
0aaaab

#940000
1aaaac

#950000
0aaaac

#960000
r0.6000000834465027 aaaaa
1aaaae
r-1.429999589920044 aaaah
r6.19999885559082 aaaaj
r-2.59999942779541 aaaan

#970000
0aaaae

#980000
1aaaad

#990000
0aaaad

#1000000
1aaaab

#1010000
0aaaab

#1020000
1aaaac

#1030000
0aaaac

#1040000
r0.6500000953674316 aaaaa
1aaaae
r-1.479999542236328 aaaah
r6.174998760223389 aaaaj
r-2.524999380111694 aaaan

#1050000
0aaaae

#1060000
1aaaad

#1070000
0aaaad

#1080000
1aaaab

#1090000
0aaaab

#1100000
1aaaac

#1110000
0aaaac

#1120000
r0.7000001072883606 aaaaa
1aaaae
r-1.529999494552612 aaaah
r6.149998664855957 aaaaj
r-2.449999332427979 aaaan

#1130000
0aaaae

#1140000
1aaaad

#1150000
0aaaad

#1160000
1aaaab

#1170000
0aaaab

#1180000
1aaaac

#1190000
0aaaac

#1200000
r0.7500001192092896 aaaaa
1aaaae
r-1.579999446868897 aaaah
r6.124998569488525 aaaaj
r-2.374999284744263 aaaan

#1210000
0aaaae

#1220000
1aaaad

#1230000
0aaaad

#1240000
1aaaab

#1250000
0aaaab

#1260000
1aaaac

#1270000
0aaaac

#1280000
r0.8000001311302185 aaaaa
1aaaae
r-1.629999399185181 aaaah
r6.099998474121094 aaaaj
r-2.299999237060547 aaaan

#1290000
0aaaae

#1300000
1aaaad

#1310000
0aaaad

#1320000
1aaaab

#1330000
0aaaab

#1340000
1aaaac

#1350000
0aaaac

#1360000
r0.8500001430511475 aaaaa
1aaaae
r-1.679999351501465 aaaah
r6.074998378753662 aaaaj
r-2.224999189376831 aaaan

#1370000
0aaaae

#1380000
1aaaad
1aaaao

#1390000
0aaaad

#1400000
1aaaab
1aaaap

#1410000
0aaaab

#1420000
1aaaac

#1430000
0aaaac

#1440000
r0.9000001549720764 aaaaa
1aaaae
r6.049998283386231 aaaaj
r-2.149999141693115 aaaan

#1450000
0aaaae

#1460000
1aaaad

#1470000
0aaaad

#1480000
1aaaab

#1490000
0aaaab

#1500000
1aaaac

#1510000
0aaaac

#1520000
r0.9500001668930054 aaaaa
1aaaae
r6.024998188018799 aaaaj
r-2.074999094009399 aaaan

#1530000
0aaaae

#1540000
1aaaad

#1550000
0aaaad

#1560000
1aaaab

#1570000
0aaaab

#1580000
1aaaac

#1590000
0aaaac

#1600000
r1.00000011920929 aaaaa
1aaaae
r5.999998092651367 aaaaj
r-1.999999046325684 aaaan

#1610000
0aaaae

#1620000
1aaaad

#1630000
0aaaad

#1640000
1aaaab

#1650000
0aaaab

#1660000
1aaaac

#1670000
0aaaac

#1680000
r1.050000071525574 aaaaa
1aaaae
r5.974997997283936 aaaaj
r-1.924998998641968 aaaan

#1690000
0aaaae

#1700000
1aaaad

#1710000
0aaaad

#1720000
1aaaab

#1730000
0aaaab

#1740000
1aaaac

#1750000
0aaaac

#1760000
r1.100000023841858 aaaaa
1aaaae
r5.949997901916504 aaaaj
r-1.849998950958252 aaaan

#1770000
0aaaae

#1780000
1aaaad

#1790000
0aaaad

#1800000
1aaaab

#1810000
0aaaab

#1820000
1aaaac

#1830000
0aaaac

#1840000
r1.149999976158142 aaaaa
1aaaae
r5.924997806549072 aaaaj
r-1.774998903274536 aaaan

#1850000
0aaaae

#1860000
1aaaad

#1870000
0aaaad

#1880000
1aaaab

#1890000
0aaaab

#1900000
1aaaac

#1910000
0aaaac

#1920000
r1.199999928474426 aaaaa
1aaaae
r5.899997711181641 aaaaj
r-1.69999885559082 aaaan

#1930000
0aaaae

#1940000
1aaaad

#1950000
0aaaad

#1960000
1aaaab

#1970000
0aaaab

#1980000
1aaaac

#1990000
0aaaac

#2000000
r1.24999988079071 aaaaa
1aaaae
r5.874997615814209 aaaaj
r-1.624998807907105 aaaan

#2010000
0aaaae

#2020000
1aaaad

#2030000
0aaaad

#2040000
1aaaab

#2050000
0aaaab

#2060000
1aaaac

#2070000
0aaaac

#2080000
r1.299999833106995 aaaaa
1aaaae
r5.849997520446777 aaaaj
r-1.549998760223389 aaaan

#2090000
0aaaae

#2100000
1aaaad

#2110000
0aaaad

#2120000
1aaaab

#2130000
0aaaab

#2140000
1aaaac

#2150000
0aaaac

#2160000
r1.349999785423279 aaaaa
1aaaae
r5.824997425079346 aaaaj
r-1.474998712539673 aaaan

#2170000
0aaaae

#2180000
1aaaad

#2190000
0aaaad

#2200000
1aaaab

#2210000
0aaaab

#2220000
1aaaac

#2230000
0aaaac

#2240000
r1.399999737739563 aaaaa
1aaaae
r5.799997329711914 aaaaj
r-1.399998664855957 aaaan

#2250000
0aaaae

#2260000
1aaaad

#2270000
0aaaad

#2280000
1aaaab

#2290000
0aaaab

#2300000
1aaaac

#2310000
0aaaac

#2320000
r1.449999690055847 aaaaa
1aaaae
r5.774997234344482 aaaaj
r-1.324998617172241 aaaan

#2330000
0aaaae

#2340000
1aaaad

#2350000
0aaaad

#2360000
1aaaab

#2370000
0aaaab

#2380000
1aaaac

#2390000
0aaaac

#2400000
r1.499999642372131 aaaaa
1aaaae
r5.749997138977051 aaaaj
r-1.249998569488525 aaaan

#2410000
0aaaae

#2420000
1aaaad
0aaaao

#2430000
0aaaad

#2440000
1aaaab
0aaaap

#2450000
0aaaab

#2460000
1aaaac

#2470000
0aaaac

#2480000
r1.549999594688416 aaaaa
1aaaae
r-1.729999303817749 aaaah
r5.724997043609619 aaaaj
r-1.17499852180481 aaaan

#2490000
0aaaae

#2500000
1aaaad

#2510000
0aaaad

#2520000
1aaaab

#2530000
0aaaab

#2540000
1aaaac

#2550000
0aaaac

#2560000
r1.5999995470047 aaaaa
1aaaae
r-1.779999256134033 aaaah
r5.699996948242188 aaaaj
r-1.099998474121094 aaaan

#2570000
0aaaae

#2580000
1aaaad

#2590000
0aaaad

#2600000
1aaaab

#2610000
0aaaab

#2620000
1aaaac

#2630000
0aaaac

#2640000
r1.649999499320984 aaaaa
1aaaae
r-1.829999208450317 aaaah
r5.674996852874756 aaaaj
r-1.024998426437378 aaaan

#2650000
0aaaae

#2660000
1aaaad

#2670000
0aaaad

#2680000
1aaaab

#2690000
0aaaab

#2700000
1aaaac

#2710000
0aaaac

#2720000
r1.699999451637268 aaaaa
1aaaae
r-1.879999160766602 aaaah
r5.649996757507324 aaaaj
r-0.9499984383583069 aaaan

#2730000
0aaaae

#2740000
1aaaad

#2750000
0aaaad

#2760000
1aaaab

#2770000
0aaaab

#2780000
1aaaac

#2790000
0aaaac

#2800000
r1.749999403953552 aaaaa
1aaaae
r-1.929999113082886 aaaah
r5.624996662139893 aaaaj
r-0.8749984502792358 aaaan

#2810000
0aaaae

#2820000
1aaaad

#2830000
0aaaad

#2840000
1aaaab

#2850000
0aaaab

#2860000
1aaaac

#2870000
0aaaac

#2880000
r1.799999356269836 aaaaa
1aaaae
r-1.97999906539917 aaaah
r5.599996566772461 aaaaj
r-0.7999984622001648 aaaan

#2890000
0aaaae

#2900000
1aaaad

#2910000
0aaaad

#2920000
1aaaab

#2930000
0aaaab

#2940000
1aaaac

#2950000
0aaaac

#2960000
r1.849999308586121 aaaaa
1aaaae
r-2.029999017715454 aaaah
r5.574996471405029 aaaaj
r-0.7249984741210938 aaaan

#2970000
0aaaae

#2980000
1aaaad

#2990000
0aaaad

#3000000
1aaaab

#3010000
0aaaab

#3020000
1aaaac

#3030000
0aaaac

#3040000
r1.899999260902405 aaaaa
1aaaae
r-2.079998970031738 aaaah
r5.549996376037598 aaaaj
r-0.6499984860420227 aaaan

#3050000
0aaaae

#3060000
1aaaad

#3070000
0aaaad

#3080000
1aaaab

#3090000
0aaaab

#3100000
1aaaac

#3110000
0aaaac

#3120000
r1.949999213218689 aaaaa
1aaaae
r-2.129998922348023 aaaah
r5.524996280670166 aaaaj
r-0.5749984979629517 aaaan

#3130000
0aaaae

#3140000
1aaaad

#3150000
0aaaad

#3160000
1aaaab

#3170000
0aaaab

#3180000
1aaaac

#3190000
0aaaac

#3200000
r1.999999165534973 aaaaa
1aaaae
r-2.179998874664307 aaaah
r5.499996185302734 aaaaj
r-0.4999985098838806 aaaan

#3210000
0aaaae

#3220000
1aaaad

#3230000
0aaaad

#3240000
1aaaab

#3250000
0aaaab

#3260000
1aaaac

#3270000
0aaaac

#3280000
r2.049999237060547 aaaaa
1aaaae
r-2.229998826980591 aaaah
r5.474996089935303 aaaaj
r6.425000190734863 aaaam

#3290000
0aaaae

#3300000
1aaaad

#3310000
0aaaad

#3320000
1aaaab

#3330000
0aaaab

#3340000
1aaaac

#3350000
0aaaac

#3360000
r2.099999189376831 aaaaa
1aaaae
r-2.279998779296875 aaaah
r5.449995994567871 aaaaj
r6.350000381469727 aaaam

#3370000
0aaaae

#3380000
1aaaad

#3390000
0aaaad

#3400000
1aaaab

#3410000
0aaaab

#3420000
1aaaac

#3430000
0aaaac

#3440000
r2.149999141693115 aaaaa
1aaaae
r-2.329998731613159 aaaah
r5.42499589920044 aaaaj
r6.27500057220459 aaaam

#3450000
0aaaae

#3460000
1aaaad

#3470000
0aaaad

#3480000
1aaaab

#3490000
0aaaab

#3500000
1aaaac

#3510000
0aaaac

#3520000
r2.199999094009399 aaaaa
1aaaae
r-2.379998683929443 aaaah
r5.399995803833008 aaaaj
r6.200000762939453 aaaam

#3530000
0aaaae

#3540000
1aaaad

#3550000
0aaaad

#3560000
1aaaab

#3570000
0aaaab

#3580000
1aaaac

#3590000
0aaaac

#3600000
r2.249999046325684 aaaaa
1aaaae
r-2.429998636245728 aaaah
r5.374995708465576 aaaaj
r6.125000953674316 aaaam

#3610000
0aaaae

#3620000
1aaaad

#3630000
0aaaad

#3640000
1aaaab

#3650000
0aaaab

#3660000
1aaaac

#3670000
0aaaac

#3680000
r2.299998998641968 aaaaa
1aaaae
r-2.479998588562012 aaaah
r5.349995613098145 aaaaj
r6.05000114440918 aaaam

#3690000
0aaaae

#3700000
1aaaad

#3710000
0aaaad

#3720000
1aaaab

#3730000
0aaaab

#3740000
1aaaac

#3750000
0aaaac

#3760000
r2.349998950958252 aaaaa
1aaaae
r-2.529998540878296 aaaah
r5.324995517730713 aaaaj
r5.975001335144043 aaaam

#3770000
0aaaae

#3780000
1aaaad

#3790000
0aaaad

#3800000
1aaaab

#3810000
0aaaab

#3820000
1aaaac

#3830000
0aaaac

#3840000
r2.399998903274536 aaaaa
1aaaae
r-2.57999849319458 aaaah
r5.299995422363281 aaaaj
r5.900001525878906 aaaam

#3850000
0aaaae

#3860000
1aaaad

#3870000
0aaaad

#3880000
1aaaab

#3890000
0aaaab

#3900000
1aaaac

#3910000
0aaaac

#3920000
r2.44999885559082 aaaaa
1aaaae
r-2.629998445510864 aaaah
r5.27499532699585 aaaaj
r5.82500171661377 aaaam

#3930000
0aaaae

#3940000
1aaaad

#3950000
0aaaad

#3960000
1aaaab

#3970000
0aaaab

#3980000
1aaaac

#3990000
0aaaac

#4000000
r2.499998807907105 aaaaa
1aaaae
r-2.679998397827148 aaaah
r5.249995231628418 aaaaj
r5.750001907348633 aaaam

#4010000
0aaaae

#4020000
1aaaad

#4030000
0aaaad

#4040000
1aaaab

#4050000
0aaaab

#4060000
1aaaac

#4070000
0aaaac

#4080000
r2.549998760223389 aaaaa
1aaaae
r-2.729998350143433 aaaah
r5.224995136260986 aaaaj
r5.675002098083496 aaaam

#4090000
0aaaae

#4100000
1aaaad

#4110000
0aaaad

#4120000
1aaaab

#4130000
0aaaab

#4140000
1aaaac

#4150000
0aaaac

#4160000
r2.599998712539673 aaaaa
1aaaae
r-2.779998302459717 aaaah
r5.199995040893555 aaaaj
r5.600002288818359 aaaam

#4170000
0aaaae

#4180000
1aaaad

#4190000
0aaaad

#4200000
1aaaab

#4210000
0aaaab

#4220000
1aaaac

#4230000
0aaaac

#4240000
r2.649998664855957 aaaaa
1aaaae
r-2.829998254776001 aaaah
r5.174994945526123 aaaaj
r5.525002479553223 aaaam

#4250000
0aaaae

#4260000
1aaaad

#4270000
0aaaad

#4280000
1aaaab

#4290000
0aaaab

#4300000
1aaaac

#4310000
0aaaac

#4320000
r2.699998617172241 aaaaa
1aaaae
r-2.879998207092285 aaaah
r5.149994850158691 aaaaj
r5.450002670288086 aaaam

#4330000
0aaaae

#4340000
1aaaad

#4350000
0aaaad

#4360000
1aaaab

#4370000
0aaaab

#4380000
1aaaac

#4390000
0aaaac

#4400000
r2.749998569488525 aaaaa
1aaaae
r-2.929998159408569 aaaah
r5.12499475479126 aaaaj
r5.375002861022949 aaaam

#4410000
0aaaae

#4420000
1aaaad

#4430000
0aaaad

#4440000
1aaaab

#4450000
0aaaab

#4460000
1aaaac

#4470000
0aaaac

#4480000
r2.79999852180481 aaaaa
1aaaae
r-2.979998111724854 aaaah
r5.099994659423828 aaaaj
r5.300003051757813 aaaam

#4490000
0aaaae

#4500000
1aaaad

#4510000
0aaaad

#4520000
1aaaab

#4530000
0aaaab

#4540000
1aaaac

#4550000
0aaaac

#4560000
r2.849998474121094 aaaaa
1aaaae
r-3.029998064041138 aaaah
r5.074994564056397 aaaaj
r5.225003242492676 aaaam

#4570000
0aaaae

#4580000
1aaaad

#4590000
0aaaad

#4600000
1aaaab
1aaaap

#4610000
0aaaab

#4620000
1aaaac

#4630000
0aaaac

#4640000
r2.899998426437378 aaaaa
1aaaae
r5.049994468688965 aaaaj
r5.150003433227539 aaaam

#4650000
0aaaae

#4660000
1aaaad

#4670000
0aaaad

#4680000
1aaaab

#4690000
0aaaab

#4700000
1aaaac

#4710000
0aaaac

#4720000
r2.949998378753662 aaaaa
1aaaae
r5.024994373321533 aaaaj
r5.075003623962402 aaaam

#4730000
0aaaae

#4740000
1aaaad

#4750000
0aaaad

#4760000
1aaaab

#4770000
0aaaab

#4780000
1aaaac

#4790000
0aaaac

#4800000
r2.999998331069946 aaaaa
1aaaae
r4.999994277954102 aaaaj
r5.000003814697266 aaaam

#4810000
0aaaae

#4820000
1aaaad

#4830000
0aaaad

#4840000
1aaaab

#4850000
0aaaab

#4860000
1aaaac

#4870000
0aaaac

#4880000
r3.049998283386231 aaaaa
1aaaae
r4.97499418258667 aaaaj
r4.925004005432129 aaaam

#4890000
0aaaae

#4900000
1aaaad

#4910000
0aaaad

#4920000
1aaaab

#4930000
0aaaab

#4940000
1aaaac

#4950000
0aaaac

#4960000
r3.099998235702515 aaaaa
1aaaae
r4.949994087219238 aaaaj
r4.850004196166992 aaaam

#4970000
0aaaae

#4980000
1aaaad

#4990000
0aaaad

#5000000
1aaaab

#5010000
0aaaab

#5020000
1aaaac

#5030000
0aaaac

#5040000
r3.149998188018799 aaaaa
1aaaae
r4.924993991851807 aaaaj
r4.775004386901856 aaaam

#5050000
0aaaae

#5060000
1aaaad

#5070000
0aaaad

#5080000
1aaaab

#5090000
0aaaab

#5100000
1aaaac

#5110000
0aaaac

#5120000
r3.199998140335083 aaaaa
1aaaae
r4.899993896484375 aaaaj
r4.700004577636719 aaaam

#5130000
0aaaae

#5140000
1aaaad

#5150000
0aaaad

#5160000
1aaaab

#5170000
0aaaab

#5180000
1aaaac

#5190000
0aaaac

#5200000
r3.249998092651367 aaaaa
1aaaae
r4.874993801116943 aaaaj
r4.625004768371582 aaaam

#5210000
0aaaae

#5220000
1aaaad

#5230000
0aaaad

#5240000
1aaaab

#5250000
0aaaab

#5260000
1aaaac

#5270000
0aaaac

#5280000
r3.299998044967651 aaaaa
1aaaae
r4.849993705749512 aaaaj
r4.550004959106445 aaaam

#5290000
0aaaae

#5300000
1aaaad

#5310000
0aaaad

#5320000
1aaaab

#5330000
0aaaab

#5340000
1aaaac

#5350000
0aaaac

#5360000
r3.349997997283936 aaaaa
1aaaae
r4.82499361038208 aaaaj
r4.475005149841309 aaaam

#5370000
0aaaae

#5380000
1aaaad

#5390000
0aaaad

#5400000
1aaaab

#5410000
0aaaab

#5420000
1aaaac

#5430000
0aaaac

#5440000
r3.39999794960022 aaaaa
1aaaae
r4.799993515014648 aaaaj
r4.400005340576172 aaaam

#5450000
0aaaae

#5460000
1aaaad

#5470000
0aaaad

#5480000
1aaaab

#5490000
0aaaab

#5500000
1aaaac

#5510000
0aaaac

#5520000
r3.449997901916504 aaaaa
1aaaae
r4.774993419647217 aaaaj
r4.325005531311035 aaaam

#5530000
0aaaae

#5540000
1aaaad

#5550000
0aaaad

#5560000
1aaaab

#5570000
0aaaab

#5580000
1aaaac

#5590000
0aaaac

#5600000
r3.499997854232788 aaaaa
1aaaae
r4.749993324279785 aaaaj
r4.250005722045898 aaaam

#5610000
0aaaae

#5620000
1aaaad

#5630000
0aaaad

#5640000
1aaaab

#5650000
0aaaab

#5660000
1aaaac

#5670000
0aaaac

#5680000
r3.549997806549072 aaaaa
1aaaae
r4.724993228912354 aaaaj
r4.175005912780762 aaaam

#5690000
0aaaae

#5700000
1aaaad

#5710000
0aaaad

#5720000
1aaaab

#5730000
0aaaab

#5740000
1aaaac

#5750000
0aaaac

#5760000
r3.599997758865356 aaaaa
1aaaae
r4.699993133544922 aaaaj
r4.100006103515625 aaaam

#5770000
0aaaae

#5780000
1aaaad

#5790000
0aaaad

#5800000
1aaaab

#5810000
0aaaab

#5820000
1aaaac

#5830000
0aaaac

#5840000
r3.649997711181641 aaaaa
1aaaae
r4.67499303817749 aaaaj
r4.025006294250488 aaaam

#5850000
0aaaae

#5860000
1aaaad

#5870000
0aaaad

#5880000
1aaaab

#5890000
0aaaab

#5900000
1aaaac

#5910000
0aaaac

#5920000
r3.699997663497925 aaaaa
1aaaae
r4.649992942810059 aaaaj
r3.950006246566773 aaaam

#5930000
0aaaae

#5940000
1aaaad

#5950000
0aaaad

#5960000
1aaaab

#5970000
0aaaab

#5980000
1aaaac

#5990000
0aaaac

#6000000
r3.749997615814209 aaaaa
1aaaae
r4.624992847442627 aaaaj
r3.875006198883057 aaaam

#6010000
0aaaae

#6020000
1aaaad

#6030000
0aaaad

#6040000
1aaaab

#6050000
0aaaab

#6060000
1aaaac

#6070000
0aaaac

#6080000
r3.799997568130493 aaaaa
1aaaae
r4.599992752075195 aaaaj
r3.800006151199341 aaaam

#6090000
0aaaae

#6100000
1aaaad

#6110000
0aaaad

#6120000
1aaaab

#6130000
0aaaab

#6140000
1aaaac

#6150000
0aaaac

#6160000
r3.849997520446777 aaaaa
1aaaae
r4.574992656707764 aaaaj
r3.725006103515625 aaaam

#6170000
0aaaae

#6180000
1aaaad

#6190000
0aaaad

#6200000
1aaaab

#6210000
0aaaab

#6220000
1aaaac

#6230000
0aaaac

#6240000
r3.899997472763062 aaaaa
1aaaae
r4.549992561340332 aaaaj
r3.650006055831909 aaaam

#6250000
0aaaae

#6260000
1aaaad

#6270000
0aaaad

#6280000
1aaaab

#6290000
0aaaab

#6300000
1aaaac

#6310000
0aaaac

#6320000
r3.949997425079346 aaaaa
1aaaae
r4.5249924659729 aaaaj
r3.575006008148193 aaaam

#6330000
0aaaae

#6340000
1aaaad

#6350000
0aaaad

#6360000
1aaaab

#6370000
0aaaab

#6380000
1aaaac

#6390000
0aaaac

#6400000
r3.99999737739563 aaaaa
1aaaae
r4.499992370605469 aaaaj
r3.500005960464478 aaaam

#6410000
0aaaae

#6420000
1aaaad

#6430000
0aaaad

#6440000
1aaaab

#6450000
0aaaab

#6460000
1aaaac

#6470000
0aaaac

#6480000
r4.049997329711914 aaaaa
1aaaae
r4.474992275238037 aaaaj
r3.425005912780762 aaaam

#6490000
0aaaae

#6500000
1aaaad

#6510000
0aaaad

#6520000
1aaaab

#6530000
0aaaab

#6540000
1aaaac

#6550000
0aaaac

#6560000
r4.099997520446777 aaaaa
1aaaae
r4.449992179870606 aaaaj
r3.350005865097046 aaaam

#6570000
0aaaae

#6580000
1aaaad

#6590000
0aaaad

#6600000
1aaaab

#6610000
0aaaab

#6620000
1aaaac

#6630000
0aaaac

#6640000
r4.149997711181641 aaaaa
1aaaae
r4.424992084503174 aaaaj
r3.27500581741333 aaaam

#6650000
0aaaae

#6660000
1aaaad

#6670000
0aaaad

#6680000
1aaaab

#6690000
0aaaab

#6700000
1aaaac

#6710000
0aaaac

#6720000
r4.199997901916504 aaaaa
1aaaae
r4.399991989135742 aaaaj
r3.200005769729614 aaaam

#6730000
0aaaae

#6740000
1aaaad

#6750000
0aaaad

#6760000
1aaaab

#6770000
0aaaab

#6780000
1aaaac

#6790000
0aaaac

#6800000
r4.249998092651367 aaaaa
1aaaae
r4.374991893768311 aaaaj
r3.125005722045898 aaaam

#6810000
0aaaae

#6820000
1aaaad

#6830000
0aaaad

#6840000
1aaaab

#6850000
0aaaab

#6860000
1aaaac

#6870000
0aaaac

#6880000
r4.299998283386231 aaaaa
1aaaae
r4.349991798400879 aaaaj
r3.050005674362183 aaaam

#6890000
0aaaae

#6900000
1aaaad

#6910000
0aaaad

#6920000
1aaaab

#6930000
0aaaab

#6940000
1aaaac

#6950000
0aaaac

#6960000
r4.349998474121094 aaaaa
1aaaae
r4.324991703033447 aaaaj
r2.975005626678467 aaaam

#6970000
0aaaae

#6980000
1aaaad

#6990000
0aaaad

#7000000
1aaaab

#7010000
0aaaab

#7020000
1aaaac

#7030000
0aaaac

#7040000
r4.399998664855957 aaaaa
1aaaae
r4.299991607666016 aaaaj
r2.900005578994751 aaaam

#7050000
0aaaae

#7060000
1aaaad

#7070000
0aaaad

#7080000
1aaaab

#7090000
0aaaab

#7100000
1aaaac

#7110000
0aaaac

#7120000
r4.44999885559082 aaaaa
1aaaae
r4.274991512298584 aaaaj
r2.825005531311035 aaaam

#7130000
0aaaae

#7140000
1aaaad

#7150000
0aaaad

#7160000
1aaaab

#7170000
0aaaab

#7180000
1aaaac

#7190000
0aaaac

#7200000
r4.499999046325684 aaaaa
1aaaae
r4.249991416931152 aaaaj
r2.750005483627319 aaaam

#7210000
0aaaae

#7220000
1aaaad

#7230000
0aaaad

#7240000
1aaaab

#7250000
0aaaab

#7260000
1aaaac

#7270000
0aaaac

#7280000
r4.549999237060547 aaaaa
1aaaae
r4.224991321563721 aaaaj
r2.675005435943604 aaaam

#7290000
0aaaae

#7300000
1aaaad

#7310000
0aaaad

#7320000
1aaaab

#7330000
0aaaab

#7340000
1aaaac

#7350000
0aaaac

#7360000
r4.59999942779541 aaaaa
1aaaae
r4.199991226196289 aaaaj
r2.600005388259888 aaaam

#7370000
0aaaae

#7380000
1aaaad

#7390000
0aaaad

#7400000
1aaaab

#7410000
0aaaab

#7420000
1aaaac

#7430000
0aaaac

#7440000
r4.649999618530273 aaaaa
1aaaae
r4.174991130828857 aaaaj
r2.525005340576172 aaaam

#7450000
0aaaae

#7460000
1aaaad

#7470000
0aaaad

#7480000
1aaaab

#7490000
0aaaab

#7500000
1aaaac

#7510000
0aaaac

#7520000
r4.699999809265137 aaaaa
1aaaae
r4.149991035461426 aaaaj
r2.450005292892456 aaaam

#7530000
0aaaae

#7540000
1aaaad

#7550000
0aaaad

#7560000
1aaaab

#7570000
0aaaab

#7580000
1aaaac

#7590000
0aaaac

#7600000
r4.75 aaaaa
1aaaae
r4.124990940093994 aaaaj
r2.37500524520874 aaaam

#7610000
0aaaae

#7620000
1aaaad

#7630000
0aaaad

#7640000
1aaaab

#7650000
0aaaab

#7660000
1aaaac

#7670000
0aaaac

#7680000
r4.800000190734863 aaaaa
1aaaae
r4.099990844726563 aaaaj
r2.300005197525024 aaaam

#7690000
0aaaae

#7700000
1aaaad

#7710000
0aaaad

#7720000
1aaaab

#7730000
0aaaab

#7740000
1aaaac

#7750000
0aaaac

#7760000
r4.850000381469727 aaaaa
1aaaae
r4.074990749359131 aaaaj
r2.225005149841309 aaaam

#7770000
0aaaae

#7780000
1aaaad

#7790000
0aaaad

#7800000
1aaaab

#7810000
0aaaab

#7820000
1aaaac

#7830000
0aaaac

#7840000
r4.90000057220459 aaaaa
1aaaae
r4.049990653991699 aaaaj
r2.150005102157593 aaaam

#7850000
0aaaae

#7860000
1aaaad

#7870000
0aaaad

#7880000
1aaaab

#7890000
0aaaab

#7900000
1aaaac

#7910000
0aaaac

#7920000
r4.950000762939453 aaaaa
1aaaae
r4.024990558624268 aaaaj
r2.075005054473877 aaaam

#7930000
0aaaae

#7940000
1aaaad

#7950000
0aaaad

#7960000
1aaaab

#7970000
0aaaab

#7980000
1aaaac

#7990000
0aaaac

#8000000
r5.000000953674316 aaaaa
1aaaae
r3.999990463256836 aaaaj
r2.000005006790161 aaaam

#8010000
0aaaae

#8020000
1aaaad

#8030000
0aaaad

#8040000
1aaaab

#8050000
0aaaab

#8060000
1aaaac

#8070000
0aaaac

#8080000
r5.05000114440918 aaaaa
1aaaae
r3.974990367889404 aaaaj
r1.925004959106445 aaaam

#8090000
0aaaae

#8100000
1aaaad

#8110000
0aaaad

#8120000
1aaaab

#8130000
0aaaab

#8140000
1aaaac

#8150000
0aaaac

#8160000
r5.100001335144043 aaaaa
1aaaae
r3.949990272521973 aaaaj
r1.85000491142273 aaaam

#8170000
0aaaae

#8180000
1aaaad

#8190000
0aaaad

#8200000
1aaaab

#8210000
0aaaab

#8220000
1aaaac

#8230000
0aaaac

#8240000
r5.150001525878906 aaaaa
1aaaae
r3.924990177154541 aaaaj
r1.775004863739014 aaaam

#8250000
0aaaae

#8260000
1aaaad

