wave.vcd
$date
     Mar 02, 2017       18:07:38
$end

$version
 SystemC 2.3.1-Accellera --- Feb  5 2017 13:42:50
$end

$timescale
     1 ps
$end

$scope module SystemC $end
$var real    1  aaaaa  time       $end
$var wire    1  aaaab  robot_clock       $end
$var wire    1  aaaac  sensor_clock       $end
$var wire    1  aaaad  human_clock       $end
$var wire   32  aaaae  robot0.direction [31:0]  $end
$var real    1  aaaaf  robot0.x       $end
$var real    1  aaaag  robot0.y       $end
$var wire    1  aaaah  obstacle       $end
$var real    1  aaaai  velocity       $end
$var wire    1  aaaaj  stop       $end
$var wire   32  aaaak  direction [31:0]  $end
$var wire    1  aaaal  near_boundary       $end
$var wire    1  aaaam  robot_is_crossing       $end
$upscope $end
$enddefinitions  $end

$comment
All initial values are dumped below at time 0 sec = 0 timescale units.
$end

$dumpvars
r0 aaaaa
0aaaab
0aaaac
1aaaad
b11 aaaae
r0.5 aaaaf
r-0.5 aaaag
0aaaah
r1 aaaai
0aaaaj
b0 aaaak
0aaaal
0aaaam
$end

#10000
0aaaad

#20000
1aaaac
b11 aaaak

#30000
0aaaac

#40000
1aaaab

#50000
0aaaab

#60000
r0.05000000074505806 aaaaa
1aaaad
r0.550000011920929 aaaaf
r-0.449999988079071 aaaag

#70000
0aaaad

#80000
1aaaac

#90000
0aaaac

#100000
1aaaab

#110000
0aaaab

#120000
r0.1000000014901161 aaaaa
1aaaad
r0.6000000238418579 aaaaf

#130000
0aaaad

#140000
1aaaac

#150000
0aaaac

#160000
1aaaab

#170000
0aaaab

#180000
r0.1500000059604645 aaaaa
1aaaad
r0.6500000357627869 aaaaf

#190000
0aaaad

#200000
1aaaac

#210000
0aaaac

#220000
1aaaab

#230000
0aaaab

#240000
r0.2000000029802322 aaaaa
1aaaad
r0.7000000476837158 aaaaf

#250000
0aaaad

#260000
1aaaac

#270000
0aaaac

#280000
1aaaab

#290000
0aaaab

#300000
r0.25 aaaaa
1aaaad
r0.7500000596046448 aaaaf

#310000
0aaaad

#320000
1aaaac

#330000
0aaaac

#340000
1aaaab

#350000
0aaaab

#360000
r0.300000011920929 aaaaa
1aaaad
r0.8000000715255737 aaaaf

#370000
0aaaad

#380000
1aaaac

#390000
0aaaac

#400000
1aaaab

#410000
0aaaab

#420000
r0.3500000238418579 aaaaa
1aaaad
r0.8500000834465027 aaaaf

#430000
0aaaad

#440000
1aaaac

#450000
0aaaac

#460000
1aaaab

#470000
0aaaab

#480000
r0.4000000357627869 aaaaa
1aaaad
r0.9000000953674316 aaaaf

#490000
0aaaad

#500000
1aaaac
1aaaal
1aaaam

#510000
0aaaac

#520000
1aaaab

#530000
0aaaab

#540000
r0.4500000476837158 aaaaa
1aaaad
r0.9500001072883606 aaaaf

#550000
0aaaad

#560000
1aaaac

#570000
0aaaac

#580000
1aaaab

#590000
0aaaab

#600000
r0.5000000596046448 aaaaa
1aaaad
r1.00000011920929 aaaaf

#610000
0aaaad

#620000
1aaaac
0aaaal
0aaaam

#630000
0aaaac

#640000
1aaaab

#650000
0aaaab

#660000
r0.5500000715255737 aaaaa
1aaaad
r1.050000071525574 aaaaf

#670000
0aaaad

#680000
1aaaac

#690000
0aaaac

#700000
1aaaab

#710000
0aaaab

#720000
r0.6000000834465027 aaaaa
1aaaad
r1.100000023841858 aaaaf

#730000
0aaaad

#740000
1aaaac

#750000
0aaaac

#760000
1aaaab

#770000
0aaaab

#780000
r0.6500000953674316 aaaaa
1aaaad
r1.149999976158142 aaaaf

#790000
0aaaad

#800000
1aaaac

#810000
0aaaac

#820000
1aaaab

#830000
0aaaab

#840000
r0.7000001072883606 aaaaa
1aaaad
r1.199999928474426 aaaaf

#850000
0aaaad

#860000
1aaaac

#870000
0aaaac

#880000
1aaaab

#890000
0aaaab

#900000
r0.7500001192092896 aaaaa
1aaaad
r1.24999988079071 aaaaf

#910000
0aaaad

#920000
1aaaac

#930000
0aaaac

#940000
1aaaab

#950000
0aaaab

#960000
r0.8000001311302185 aaaaa
1aaaad
r1.299999833106995 aaaaf

#970000
0aaaad

#980000
1aaaac

#990000
0aaaac

#1000000
1aaaab

#1010000
0aaaab

#1020000
r0.8500001430511475 aaaaa
1aaaad
r1.349999785423279 aaaaf

#1030000
0aaaad

#1040000
1aaaac

#1050000
0aaaac

#1060000
1aaaab

#1070000
0aaaab

#1080000
r0.9000001549720764 aaaaa
1aaaad
r1.399999737739563 aaaaf

#1090000
0aaaad

#1100000
1aaaac

#1110000
0aaaac

#1120000
1aaaab

#1130000
0aaaab

#1140000
r0.9500001668930054 aaaaa
1aaaad
r1.449999690055847 aaaaf

#1150000
0aaaad

#1160000
1aaaac

#1170000
0aaaac

#1180000
1aaaab

#1190000
0aaaab

#1200000
r1.00000011920929 aaaaa
1aaaad
r1.499999642372131 aaaaf

#1210000
0aaaad

#1220000
1aaaac

#1230000
0aaaac

#1240000
1aaaab

#1250000
0aaaab

#1260000
r1.050000071525574 aaaaa
1aaaad
r1.549999594688416 aaaaf

#1270000
0aaaad

#1280000
1aaaac

#1290000
0aaaac

#1300000
1aaaab

#1310000
0aaaab

#1320000
r1.100000023841858 aaaaa
1aaaad
r1.5999995470047 aaaaf

#1330000
0aaaad

#1340000
1aaaac

#1350000
0aaaac

#1360000
1aaaab

#1370000
0aaaab

#1380000
r1.149999976158142 aaaaa
1aaaad
r1.649999499320984 aaaaf

#1390000
0aaaad

#1400000
1aaaac

#1410000
0aaaac

#1420000
1aaaab

#1430000
0aaaab

#1440000
r1.199999928474426 aaaaa
1aaaad
r1.699999451637268 aaaaf

#1450000
0aaaad

#1460000
1aaaac

#1470000
0aaaac

#1480000
1aaaab

#1490000
0aaaab

#1500000
r1.24999988079071 aaaaa
1aaaad
r1.749999403953552 aaaaf

#1510000
0aaaad

#1520000
1aaaac

#1530000
0aaaac

#1540000
1aaaab

#1550000
0aaaab

#1560000
r1.299999833106995 aaaaa
1aaaad
r1.799999356269836 aaaaf

#1570000
0aaaad

#1580000
1aaaac

#1590000
0aaaac

#1600000
1aaaab

#1610000
0aaaab

#1620000
r1.349999785423279 aaaaa
1aaaad
r1.849999308586121 aaaaf

#1630000
0aaaad

#1640000
1aaaac

#1650000
0aaaac

#1660000
1aaaab

#1670000
0aaaab

#1680000
r1.399999737739563 aaaaa
1aaaad
r1.899999260902405 aaaaf

#1690000
0aaaad

#1700000
1aaaac

#1710000
0aaaac

#1720000
1aaaab

#1730000
0aaaab

#1740000
r1.449999690055847 aaaaa
1aaaad
r1.949999213218689 aaaaf

#1750000
0aaaad

#1760000
1aaaac
1aaaal
1aaaam

#1770000
0aaaac

#1780000
1aaaab

#1790000
0aaaab

#1800000
r1.499999642372131 aaaaa
1aaaad
r1.999999165534973 aaaaf

#1810000
0aaaad

#1820000
1aaaac

#1830000
0aaaac

#1840000
1aaaab

#1850000
0aaaab

#1860000
r1.549999594688416 aaaaa
1aaaad
r2.049999237060547 aaaaf

#1870000
0aaaad

#1880000
1aaaac
0aaaal
0aaaam

#1890000
0aaaac

#1900000
1aaaab

#1910000
0aaaab

#1920000
r1.5999995470047 aaaaa
1aaaad
r2.099999189376831 aaaaf

#1930000
0aaaad

#1940000
1aaaac

#1950000
0aaaac

#1960000
1aaaab

#1970000
0aaaab

#1980000
r1.649999499320984 aaaaa
1aaaad
r2.149999141693115 aaaaf

#1990000
0aaaad

#2000000
1aaaac

#2010000
0aaaac

#2020000
1aaaab

#2030000
0aaaab

#2040000
r1.699999451637268 aaaaa
1aaaad
r2.199999094009399 aaaaf

#2050000
0aaaad

#2060000
1aaaac

#2070000
0aaaac

#2080000
1aaaab

#2090000
0aaaab

#2100000
r1.749999403953552 aaaaa
1aaaad
r2.249999046325684 aaaaf

#2110000
0aaaad

#2120000
1aaaac

#2130000
0aaaac

#2140000
1aaaab

#2150000
0aaaab

#2160000
r1.799999356269836 aaaaa
1aaaad
r2.299998998641968 aaaaf

#2170000
0aaaad

#2180000
1aaaac

#2190000
0aaaac

#2200000
1aaaab

#2210000
0aaaab

#2220000
r1.849999308586121 aaaaa
1aaaad
r2.349998950958252 aaaaf

#2230000
0aaaad

#2240000
1aaaac

#2250000
0aaaac

#2260000
1aaaab

#2270000
0aaaab

#2280000
r1.899999260902405 aaaaa
1aaaad
r2.399998903274536 aaaaf

#2290000
0aaaad

#2300000
1aaaac

#2310000
0aaaac

#2320000
1aaaab

#2330000
0aaaab

#2340000
r1.949999213218689 aaaaa
1aaaad
r2.44999885559082 aaaaf

#2350000
0aaaad

#2360000
1aaaac

#2370000
0aaaac

#2380000
1aaaab

#2390000
0aaaab

#2400000
r1.999999165534973 aaaaa
1aaaad
r2.499998807907104 aaaaf

#2410000
0aaaad

#2420000
1aaaac

#2430000
0aaaac

#2440000
1aaaab

#2450000
0aaaab

#2460000
r2.049999237060547 aaaaa
1aaaad
r2.549998760223389 aaaaf

#2470000
0aaaad

#2480000
1aaaac

#2490000
0aaaac

#2500000
1aaaab

#2510000
0aaaab

#2520000
r2.099999189376831 aaaaa
1aaaad
r2.599998712539673 aaaaf

#2530000
0aaaad

#2540000
1aaaac

#2550000
0aaaac

#2560000
1aaaab

#2570000
0aaaab

#2580000
r2.149999141693115 aaaaa
1aaaad
r2.649998664855957 aaaaf

#2590000
0aaaad

#2600000
1aaaac

#2610000
0aaaac

#2620000
1aaaab

#2630000
0aaaab

#2640000
r2.199999094009399 aaaaa
1aaaad
r2.699998617172241 aaaaf

#2650000
0aaaad

#2660000
1aaaac

#2670000
0aaaac

#2680000
1aaaab

#2690000
0aaaab

#2700000
r2.249999046325684 aaaaa
1aaaad
r2.749998569488525 aaaaf

#2710000
0aaaad

#2720000
1aaaac

#2730000
0aaaac

#2740000
1aaaab

#2750000
0aaaab

#2760000
r2.299998998641968 aaaaa
1aaaad
r2.79999852180481 aaaaf

#2770000
0aaaad

#2780000
1aaaac

#2790000
0aaaac

#2800000
1aaaab

#2810000
0aaaab

#2820000
r2.349998950958252 aaaaa
1aaaad
r2.849998474121094 aaaaf

#2830000
0aaaad

#2840000
1aaaac

#2850000
0aaaac

#2860000
1aaaab

#2870000
0aaaab

#2880000
r2.399998903274536 aaaaa
1aaaad
r2.899998426437378 aaaaf

#2890000
0aaaad

#2900000
1aaaac

#2910000
0aaaac

#2920000
1aaaab

#2930000
0aaaab

#2940000
r2.44999885559082 aaaaa
1aaaad
r2.949998378753662 aaaaf

#2950000
0aaaad

#2960000
1aaaac
1aaaal
1aaaam

#2970000
0aaaac

#2980000
1aaaab

#2990000
0aaaab

#3000000
r2.499998807907104 aaaaa
1aaaad
r2.999998331069946 aaaaf

#3010000
0aaaad

#3020000
1aaaac

#3030000
0aaaac

#3040000
1aaaab

#3050000
0aaaab

#3060000
r2.549998760223389 aaaaa
1aaaad
r3.04999828338623 aaaaf

#3070000
0aaaad

#3080000
1aaaac
0aaaal
0aaaam

#3090000
0aaaac

#3100000
1aaaab

#3110000
0aaaab

#3120000
r2.599998712539673 aaaaa
1aaaad
r3.099998235702515 aaaaf

#3130000
0aaaad

#3140000
1aaaac

#3150000
0aaaac

#3160000
1aaaab

#3170000
0aaaab

#3180000
r2.649998664855957 aaaaa
1aaaad
r3.149998188018799 aaaaf

#3190000
0aaaad

#3200000
1aaaac

#3210000
0aaaac

#3220000
1aaaab

#3230000
0aaaab

#3240000
r2.699998617172241 aaaaa
1aaaad
r3.199998140335083 aaaaf

#3250000
0aaaad

#3260000
1aaaac

#3270000
0aaaac

#3280000
1aaaab

#3290000
0aaaab

#3300000
r2.749998569488525 aaaaa
1aaaad
r3.249998092651367 aaaaf

#3310000
0aaaad

#3320000
1aaaac

#3330000
0aaaac

#3340000
1aaaab

#3350000
0aaaab

#3360000
r2.79999852180481 aaaaa
1aaaad
r3.299998044967651 aaaaf

#3370000
0aaaad

#3380000
1aaaac

#3390000
0aaaac

#3400000
1aaaab

#3410000
0aaaab

#3420000
r2.849998474121094 aaaaa
1aaaad
r3.349997997283936 aaaaf

#3430000
0aaaad

#3440000
1aaaac

#3450000
0aaaac

#3460000
1aaaab

#3470000
0aaaab

#3480000
r2.899998426437378 aaaaa
1aaaad
r3.39999794960022 aaaaf

#3490000
0aaaad

#3500000
1aaaac

#3510000
0aaaac

#3520000
1aaaab

#3530000
0aaaab

#3540000
r2.949998378753662 aaaaa
1aaaad
r3.449997901916504 aaaaf

#3550000
0aaaad

#3560000
1aaaac

#3570000
0aaaac

#3580000
1aaaab

#3590000
0aaaab

#3600000
r2.999998331069946 aaaaa
1aaaad
r3.499997854232788 aaaaf

#3610000
0aaaad

#3620000
1aaaac

#3630000
0aaaac

#3640000
1aaaab

#3650000
0aaaab

#3660000
r3.04999828338623 aaaaa
1aaaad
r3.549997806549072 aaaaf

#3670000
0aaaad

#3680000
1aaaac

#3690000
0aaaac

#3700000
1aaaab

#3710000
0aaaab

#3720000
r3.099998235702515 aaaaa
1aaaad
r3.599997758865356 aaaaf

#3730000
0aaaad

#3740000
1aaaac

#3750000
0aaaac

#3760000
1aaaab

#3770000
0aaaab

#3780000
r3.149998188018799 aaaaa
1aaaad
r3.649997711181641 aaaaf

#3790000
0aaaad

#3800000
1aaaac

#3810000
0aaaac

#3820000
1aaaab

#3830000
0aaaab

#3840000
r3.199998140335083 aaaaa
1aaaad
r3.699997663497925 aaaaf

#3850000
0aaaad

#3860000
1aaaac

#3870000
0aaaac

#3880000
1aaaab

#3890000
0aaaab

#3900000
r3.249998092651367 aaaaa
1aaaad
r3.749997615814209 aaaaf

#3910000
0aaaad

#3920000
1aaaac

#3930000
0aaaac

#3940000
1aaaab

#3950000
0aaaab

#3960000
r3.299998044967651 aaaaa
1aaaad
r3.799997568130493 aaaaf

#3970000
0aaaad

#3980000
1aaaac

#3990000
0aaaac

#4000000
1aaaab

#4010000
0aaaab

#4020000
r3.349997997283936 aaaaa
1aaaad
r3.849997520446777 aaaaf

#4030000
0aaaad

#4040000
1aaaac

#4050000
0aaaac

#4060000
1aaaab

#4070000
0aaaab

#4080000
r3.39999794960022 aaaaa
1aaaad
r3.899997472763062 aaaaf

#4090000
0aaaad

#4100000
1aaaac
1aaaah

#4110000
0aaaac

#4120000
1aaaab

#4130000
0aaaab

#4140000
r3.449997901916504 aaaaa
1aaaad

#4150000
0aaaad

#4160000
1aaaac

#4170000
0aaaac

#4180000
1aaaab

#4190000
0aaaab

#4200000
r3.499997854232788 aaaaa
1aaaad

#4210000
0aaaad

#4220000
1aaaac

#4230000
0aaaac

#4240000
1aaaab

#4250000
0aaaab

#4260000
r3.549997806549072 aaaaa
1aaaad

#4270000
0aaaad

#4280000
1aaaac

#4290000
0aaaac

#4300000
1aaaab

#4310000
0aaaab

#4320000
r3.599997758865356 aaaaa
1aaaad

#4330000
0aaaad

#4340000
1aaaac

#4350000
0aaaac

#4360000
1aaaab

#4370000
0aaaab

#4380000
r3.649997711181641 aaaaa
1aaaad

#4390000
0aaaad

#4400000
1aaaac

#4410000
0aaaac

#4420000
1aaaab

#4430000
0aaaab

#4440000
r3.699997663497925 aaaaa
1aaaad

#4450000
0aaaad

#4460000
1aaaac

#4470000
0aaaac

#4480000
1aaaab

#4490000
0aaaab

#4500000
r3.749997615814209 aaaaa
1aaaad

#4510000
0aaaad

#4520000
1aaaac

#4530000
0aaaac

#4540000
1aaaab

#4550000
0aaaab

#4560000
r3.799997568130493 aaaaa
1aaaad

#4570000
0aaaad

#4580000
1aaaac

#4590000
0aaaac

#4600000
1aaaab

#4610000
0aaaab

#4620000
r3.849997520446777 aaaaa
1aaaad

#4630000
0aaaad

#4640000
1aaaac

#4650000
0aaaac

#4660000
1aaaab

#4670000
0aaaab

#4680000
r3.899997472763062 aaaaa
1aaaad

#4690000
0aaaad

#4700000
1aaaac

#4710000
0aaaac

#4720000
1aaaab

#4730000
0aaaab

#4740000
r3.949997425079346 aaaaa
1aaaad

#4750000
0aaaad

#4760000
1aaaac

#4770000
0aaaac

#4780000
1aaaab

#4790000
0aaaab

#4800000
r3.99999737739563 aaaaa
1aaaad

#4810000
0aaaad

#4820000
1aaaac

#4830000
0aaaac

#4840000
1aaaab

#4850000
0aaaab

#4860000
r4.049997329711914 aaaaa
1aaaad

#4870000
0aaaad

#4880000
1aaaac
0aaaah

#4890000
0aaaac

#4900000
1aaaab

#4910000
0aaaab

#4920000
r4.099997520446777 aaaaa
1aaaad
r3.949997425079346 aaaaf

#4930000
0aaaad

#4940000
1aaaac
1aaaal
1aaaam

#4950000
0aaaac

#4960000
1aaaab

#4970000
0aaaab

#4980000
r4.149997711181641 aaaaa
1aaaad
r3.99999737739563 aaaaf

#4990000
0aaaad

#5000000
1aaaac

#5010000
0aaaac

#5020000
1aaaab

#5030000
0aaaab

#5040000
r4.199997901916504 aaaaa
1aaaad
r4.049997329711914 aaaaf

#5050000
0aaaad

#5060000
1aaaac
0aaaal
0aaaam

#5070000
0aaaac

#5080000
1aaaab

#5090000
0aaaab

#5100000
r4.249998092651367 aaaaa
1aaaad
r4.099997520446777 aaaaf

#5110000
0aaaad

#5120000
1aaaac

#5130000
0aaaac

#5140000
1aaaab

#5150000
0aaaab

#5160000
r4.29999828338623 aaaaa
1aaaad
r4.149997711181641 aaaaf

#5170000
0aaaad

#5180000
1aaaac

#5190000
0aaaac

#5200000
1aaaab

#5210000
0aaaab

#5220000
r4.349998474121094 aaaaa
1aaaad
r4.199997901916504 aaaaf

#5230000
0aaaad

#5240000
1aaaac

#5250000
0aaaac

#5260000
1aaaab

#5270000
0aaaab

#5280000
r4.399998664855957 aaaaa
1aaaad
r4.249998092651367 aaaaf

#5290000
0aaaad

#5300000
1aaaac

#5310000
0aaaac

#5320000
1aaaab

#5330000
0aaaab

#5340000
r4.44999885559082 aaaaa
1aaaad
r4.29999828338623 aaaaf

#5350000
0aaaad

#5360000
1aaaac

#5370000
0aaaac

#5380000
1aaaab

#5390000
0aaaab

#5400000
r4.499999046325684 aaaaa
1aaaad
r4.349998474121094 aaaaf

#5410000
0aaaad

#5420000
1aaaac

#5430000
0aaaac

#5440000
1aaaab

#5450000
0aaaab

#5460000
r4.549999237060547 aaaaa
1aaaad
r4.399998664855957 aaaaf

#5470000
0aaaad

#5480000
1aaaac

#5490000
0aaaac

#5500000
1aaaab

#5510000
0aaaab

#5520000
r4.59999942779541 aaaaa
1aaaad
r4.44999885559082 aaaaf

#5530000
0aaaad

#5540000
1aaaac

#5550000
0aaaac

#5560000
1aaaab

#5570000
0aaaab

#5580000
r4.649999618530273 aaaaa
1aaaad
r4.499999046325684 aaaaf

#5590000
0aaaad

#5600000
1aaaac

#5610000
0aaaac

#5620000
1aaaab

#5630000
0aaaab

#5640000
r4.699999809265137 aaaaa
1aaaad
r4.549999237060547 aaaaf

#5650000
0aaaad

#5660000
1aaaac

#5670000
0aaaac

#5680000
1aaaab

#5690000
0aaaab

#5700000
r4.75 aaaaa
1aaaad
r4.59999942779541 aaaaf

#5710000
0aaaad

#5720000
1aaaac

#5730000
0aaaac

#5740000
1aaaab

#5750000
0aaaab

#5760000
r4.800000190734863 aaaaa
1aaaad
r4.649999618530273 aaaaf

#5770000
0aaaad

#5780000
1aaaac

#5790000
0aaaac

#5800000
1aaaab

#5810000
0aaaab

#5820000
r4.850000381469727 aaaaa
1aaaad
r4.699999809265137 aaaaf

#5830000
0aaaad

#5840000
1aaaac

#5850000
0aaaac

#5860000
1aaaab

#5870000
0aaaab

#5880000
r4.90000057220459 aaaaa
1aaaad
r4.75 aaaaf

#5890000
0aaaad

#5900000
1aaaac

#5910000
0aaaac

#5920000
1aaaab

#5930000
0aaaab

#5940000
r4.950000762939453 aaaaa
1aaaad
r4.800000190734863 aaaaf

#5950000
0aaaad

#5960000
1aaaac

#5970000
0aaaac

#5980000
1aaaab

#5990000
0aaaab

#6000000
r5.000000953674316 aaaaa
1aaaad
r4.850000381469727 aaaaf

#6010000
0aaaad

#6020000
1aaaac

#6030000
0aaaac

#6040000
1aaaab

#6050000
0aaaab

#6060000
r5.05000114440918 aaaaa
1aaaad
r4.90000057220459 aaaaf

#6070000
0aaaad

#6080000
1aaaac
1aaaal
1aaaam

#6090000
0aaaac

#6100000
1aaaab

#6110000
0aaaab

#6120000
r5.100001335144043 aaaaa
1aaaad
r4.950000762939453 aaaaf

#6130000
0aaaad

#6140000
1aaaac

#6150000
0aaaac

#6160000
1aaaab

#6170000
0aaaab

#6180000
r5.150001525878906 aaaaa
1aaaad
r5.000000953674316 aaaaf

#6190000
0aaaad

#6200000
1aaaac
0aaaal
0aaaam

#6210000
0aaaac

#6220000
1aaaab

#6230000
0aaaab

#6240000
r5.20000171661377 aaaaa
1aaaad
r5.05000114440918 aaaaf

#6250000
0aaaad

#6260000
1aaaac

#6270000
0aaaac

#6280000
1aaaab

#6290000
0aaaab

#6300000
r5.250001907348633 aaaaa
1aaaad
r5.100001335144043 aaaaf

#6310000
0aaaad

#6320000
1aaaac

#6330000
0aaaac

#6340000
1aaaab

#6350000
0aaaab

#6360000
r5.300002098083496 aaaaa
1aaaad
r5.150001525878906 aaaaf

#6370000
0aaaad

#6380000
1aaaac

#6390000
0aaaac

#6400000
1aaaab

#6410000
0aaaab

#6420000
r5.350002288818359 aaaaa
1aaaad
r5.20000171661377 aaaaf

#6430000
0aaaad

#6440000
1aaaac

#6450000
0aaaac

#6460000
1aaaab

#6470000
0aaaab

#6480000
r5.400002479553223 aaaaa
1aaaad
r5.250001907348633 aaaaf

#6490000
0aaaad

#6500000
1aaaac

#6510000
0aaaac

#6520000
1aaaab

#6530000
0aaaab

#6540000
r5.450002670288086 aaaaa
1aaaad
r5.300002098083496 aaaaf

#6550000
0aaaad

#6560000
1aaaac

#6570000
0aaaac

#6580000
1aaaab

#6590000
0aaaab

#6600000
r5.500002861022949 aaaaa
1aaaad
r5.350002288818359 aaaaf

#6610000
0aaaad

#6620000
1aaaac

#6630000
0aaaac

#6640000
1aaaab

#6650000
0aaaab

#6660000
r5.550003051757812 aaaaa
1aaaad
r5.400002479553223 aaaaf

#6670000
0aaaad

#6680000
1aaaac

#6690000
0aaaac

#6700000
1aaaab

#6710000
0aaaab

#6720000
r5.600003242492676 aaaaa
1aaaad
r5.450002670288086 aaaaf

#6730000
0aaaad

#6740000
1aaaac

#6750000
0aaaac

#6760000
1aaaab

#6770000
0aaaab

#6780000
r5.650003433227539 aaaaa
1aaaad
r5.500002861022949 aaaaf

#6790000
0aaaad

#6800000
1aaaac

#6810000
0aaaac

#6820000
1aaaab

#6830000
0aaaab

#6840000
r5.700003623962402 aaaaa
1aaaad
r5.550003051757812 aaaaf

#6850000
0aaaad

#6860000
1aaaac

#6870000
0aaaac

#6880000
1aaaab

#6890000
0aaaab

#6900000
r5.750003814697266 aaaaa
1aaaad
r5.600003242492676 aaaaf

#6910000
0aaaad

#6920000
1aaaac

#6930000
0aaaac

#6940000
1aaaab

#6950000
0aaaab

#6960000
r5.800004005432129 aaaaa
1aaaad
r5.650003433227539 aaaaf

#6970000
0aaaad

#6980000
1aaaac

#6990000
0aaaac

#7000000
1aaaab

#7010000
0aaaab

#7020000
r5.850004196166992 aaaaa
1aaaad
r5.700003623962402 aaaaf

#7030000
0aaaad

#7040000
1aaaac

#7050000
0aaaac

#7060000
1aaaab

#7070000
0aaaab

#7080000
r5.900004386901855 aaaaa
1aaaad
r5.750003814697266 aaaaf

#7090000
0aaaad

#7100000
1aaaac

#7110000
0aaaac

#7120000
1aaaab

#7130000
0aaaab

#7140000
r5.950004577636719 aaaaa
1aaaad
r5.800004005432129 aaaaf

#7150000
0aaaad

#7160000
1aaaac

#7170000
0aaaac

#7180000
1aaaab

#7190000
0aaaab

#7200000
r6.000004768371582 aaaaa
1aaaad
r5.850004196166992 aaaaf

#7210000
0aaaad

#7220000
1aaaac

#7230000
0aaaac

#7240000
1aaaab

#7250000
0aaaab

#7260000
r6.050004959106445 aaaaa
1aaaad
r5.900004386901855 aaaaf

#7270000
0aaaad

#7280000
1aaaac
1aaaal
1aaaam

#7290000
0aaaac

#7300000
1aaaab

#7310000
0aaaab

#7320000
r6.100005149841309 aaaaa
1aaaad
r5.950004577636719 aaaaf

#7330000
0aaaad

#7340000
1aaaac

#7350000
0aaaac

#7360000
1aaaab

#7370000
0aaaab

#7380000
r6.150005340576172 aaaaa
1aaaad
r6.000004768371582 aaaaf

#7390000
0aaaad

#7400000
1aaaac
0aaaal
0aaaam

#7410000
0aaaac

#7420000
1aaaab

#7430000
0aaaab

#7440000
r6.200005531311035 aaaaa
1aaaad
r6.050004959106445 aaaaf

#7450000
0aaaad

#7460000
1aaaac

#7470000
0aaaac

#7480000
1aaaab

#7490000
0aaaab

#7500000
r6.250005722045898 aaaaa
1aaaad
r6.100005149841309 aaaaf

#7510000
0aaaad

#7520000
1aaaac
b1 aaaak

#7530000
0aaaac

#7540000
1aaaab

#7550000
0aaaab

#7560000
r6.300005912780762 aaaaa
1aaaad
b1 aaaae
r-0.5 aaaag

#7570000
0aaaad

#7580000
1aaaac

#7590000
0aaaac

#7600000
1aaaab

#7610000
0aaaab

#7620000
r6.350006103515625 aaaaa
1aaaad
r-0.550000011920929 aaaag

#7630000
0aaaad

#7640000
1aaaac

#7650000
0aaaac

#7660000
1aaaab

#7670000
0aaaab

#7680000
r6.400006294250488 aaaaa
1aaaad
r-0.6000000238418579 aaaag

#7690000
0aaaad

#7700000
1aaaac

#7710000
0aaaac

#7720000
1aaaab

#7730000
0aaaab

#7740000
r6.450006484985352 aaaaa
1aaaad
r-0.6500000357627869 aaaag

#7750000
0aaaad

#7760000
1aaaac

#7770000
0aaaac

#7780000
1aaaab

#7790000
0aaaab

#7800000
r6.500006675720215 aaaaa
1aaaad
r-0.7000000476837158 aaaag

#7810000
0aaaad

#7820000
1aaaac

#7830000
0aaaac

#7840000
1aaaab

#7850000
0aaaab

#7860000
r6.550006866455078 aaaaa
1aaaad
r-0.7500000596046448 aaaag

#7870000
0aaaad

#7880000
1aaaac

#7890000
0aaaac

#7900000
1aaaab

#7910000
0aaaab

#7920000
r6.600007057189941 aaaaa
1aaaad
r-0.8000000715255737 aaaag

#7930000
0aaaad

#7940000
1aaaac

#7950000
0aaaac

#7960000
1aaaab

#7970000
0aaaab

#7980000
r6.650007247924805 aaaaa
1aaaad
r-0.8500000834465027 aaaag

#7990000
0aaaad

#8000000
1aaaac

#8010000
0aaaac

#8020000
1aaaab

#8030000
0aaaab

#8040000
r6.700007438659668 aaaaa
1aaaad
r-0.9000000953674316 aaaag

#8050000
0aaaad

#8060000
1aaaac
1aaaal
1aaaam

#8070000
0aaaac

#8080000
1aaaab

#8090000
0aaaab

#8100000
r6.750007629394531 aaaaa
1aaaad
r-0.9500001072883606 aaaag

#8110000
0aaaad

#8120000
1aaaac

#8130000
0aaaac

#8140000
1aaaab

#8150000
0aaaab

#8160000
r6.800007820129395 aaaaa
1aaaad
r-1.00000011920929 aaaag

#8170000
0aaaad

#8180000
1aaaac

#8190000
0aaaac

#8200000
1aaaab

#8210000
0aaaab

#8220000
r6.850008010864258 aaaaa
1aaaad
r-1.050000071525574 aaaag

#8230000
0aaaad

#8240000
1aaaac

#8250000
0aaaac

#8260000
1aaaab

#8270000
0aaaab

#8280000
r6.900008201599121 aaaaa
1aaaad
r-1.100000023841858 aaaag

#8290000
0aaaad

#8300000
1aaaac

#8310000
0aaaac

#8320000
1aaaab

#8330000
0aaaab

#8340000
r6.950008392333984 aaaaa
1aaaad
r-1.149999976158142 aaaag

#8350000
0aaaad

#8360000
1aaaac

#8370000
0aaaac

#8380000
1aaaab

#8390000
0aaaab

#8400000
r7.000008583068848 aaaaa
1aaaad
r-1.199999928474426 aaaag

#8410000
0aaaad

#8420000
1aaaac

#8430000
0aaaac

#8440000
1aaaab

#8450000
0aaaab

#8460000
r7.050008773803711 aaaaa
1aaaad
r-1.24999988079071 aaaag

#8470000
0aaaad

#8480000
1aaaac

#8490000
0aaaac

#8500000
1aaaab

#8510000
0aaaab

#8520000
r7.100008964538574 aaaaa
1aaaad
r-1.299999833106995 aaaag

#8530000
0aaaad

#8540000
1aaaac

#8550000
0aaaac

#8560000
1aaaab

#8570000
0aaaab

#8580000
r7.150009155273438 aaaaa
1aaaad
r-1.349999785423279 aaaag

#8590000
0aaaad

#8600000
1aaaac

#8610000
0aaaac

#8620000
1aaaab

#8630000
0aaaab

#8640000
r7.200009346008301 aaaaa
1aaaad
r-1.399999737739563 aaaag

#8650000
0aaaad

#8660000
1aaaac

#8670000
0aaaac

#8680000
1aaaab

#8690000
0aaaab

#8700000
r7.250009536743164 aaaaa
1aaaad
r-1.449999690055847 aaaag

#8710000
0aaaad

#8720000
1aaaac

#8730000
0aaaac

#8740000
1aaaab

#8750000
0aaaab

#8760000
r7.300009727478027 aaaaa
1aaaad
r-1.499999642372131 aaaag

#8770000
0aaaad

#8780000
1aaaac

#8790000
0aaaac

#8800000
1aaaab

#8810000
0aaaab

#8820000
r7.350009918212891 aaaaa
1aaaad
r-1.549999594688416 aaaag

#8830000
0aaaad

#8840000
1aaaac

#8850000
0aaaac

#8860000
1aaaab

#8870000
0aaaab

#8880000
r7.400010108947754 aaaaa
1aaaad
r-1.5999995470047 aaaag

#8890000
0aaaad

#8900000
1aaaac

#8910000
0aaaac

#8920000
1aaaab

#8930000
0aaaab

#8940000
r7.450010299682617 aaaaa
1aaaad
r-1.649999499320984 aaaag

#8950000
0aaaad

#8960000
1aaaac

#8970000
0aaaac

#8980000
1aaaab

#8990000
0aaaab

#9000000
r7.50001049041748 aaaaa
1aaaad
r-1.699999451637268 aaaag

#9010000
0aaaad

#9020000
1aaaac

#9030000
0aaaac

#9040000
1aaaab

#9050000
0aaaab

#9060000
r7.550010681152344 aaaaa
1aaaad
r-1.749999403953552 aaaag

#9070000
0aaaad

#9080000
1aaaac

#9090000
0aaaac

#9100000
1aaaab

