wave.vcd
$date
     Mar 04, 2017       18:28:59
$end

$version
 SystemC 2.3.1-Accellera --- Feb 11 2017 14:36:57
$end

$timescale
     1 ps
$end

$scope module SystemC $end
$var real    1  aaaaa  time       $end
$var wire    1  aaaab  robot_clock       $end
$var wire   32  aaaac  robot0.direction [31:0]  $end
$var real    1  aaaad  robot0.x       $end
$var real    1  aaaae  robot0.y       $end
$var wire    1  aaaaf  obstacle       $end
$var real    1  aaaag  velocity       $end
$var wire    1  aaaah  stop       $end
$var wire   32  aaaai  direction [31:0]  $end
$var wire    1  aaaaj  near_boundary       $end
$var wire    1  aaaak  robot_is_crossing       $end
$var wire   32  aaaal  path [31:0]  $end
$upscope $end
$enddefinitions  $end

$comment
All initial values are dumped below at time 0 sec = 0 timescale units.
$end

$dumpvars
r0 aaaaa
0aaaab
b11 aaaac
r0.5 aaaad
r-0.5 aaaae
0aaaaf
r1 aaaag
0aaaah
b11 aaaai
0aaaaj
0aaaak
b10 aaaal
$end

#40000
1aaaab

#50000
0aaaab

#60000
r0.05000000074505806 aaaaa
r0.550000011920929 aaaad

#100000
1aaaab

#110000
0aaaab

#120000
r0.1000000014901161 aaaaa
r0.6000000238418579 aaaad

#160000
1aaaab

#170000
0aaaab

#180000
r0.1500000059604645 aaaaa
r0.6500000357627869 aaaad

#220000
1aaaab

#230000
0aaaab

#240000
r0.2000000029802322 aaaaa
r0.7000000476837158 aaaad

#280000
1aaaab

#290000
0aaaab

#300000
r0.25 aaaaa
r0.7500000596046448 aaaad

#340000
1aaaab

#350000
0aaaab

#360000
r0.300000011920929 aaaaa
r0.8000000715255737 aaaad

#400000
1aaaab

#410000
0aaaab

#420000
r0.3500000238418579 aaaaa
r0.8500000834465027 aaaad

#460000
1aaaab

#470000
0aaaab

#480000
r0.4000000357627869 aaaaa
r0.9000000953674316 aaaad

#500000
1aaaaj
1aaaak

#520000
1aaaab

#530000
0aaaab

#540000
r0.4500000476837158 aaaaa
r0.9500001072883606 aaaad

#580000
1aaaab

#590000
0aaaab

#600000
r0.5000000596046448 aaaaa
r1.00000011920929 aaaad

#620000
0aaaaj
0aaaak
b11 aaaal

#640000
1aaaab

#650000
0aaaab

#660000
r0.5500000715255737 aaaaa
r1.050000071525574 aaaad

#700000
1aaaab

#710000
0aaaab

#720000
r0.6000000834465027 aaaaa
r1.100000023841858 aaaad

#760000
1aaaab

#770000
0aaaab

#780000
r0.6500000953674316 aaaaa
r1.149999976158142 aaaad

#820000
1aaaab

#830000
0aaaab

#840000
r0.7000001072883606 aaaaa
r1.199999928474426 aaaad

#880000
1aaaab

#890000
0aaaab

#900000
r0.7500001192092896 aaaaa
r1.24999988079071 aaaad

#940000
1aaaab

#950000
0aaaab

#960000
r0.8000001311302185 aaaaa
r1.299999833106995 aaaad

#1000000
1aaaab

#1010000
0aaaab

#1020000
r0.8500001430511475 aaaaa
r1.349999785423279 aaaad

#1060000
1aaaab

#1070000
0aaaab

#1080000
r0.9000001549720764 aaaaa
r1.399999737739563 aaaad

#1120000
1aaaab

#1130000
0aaaab

#1140000
r0.9500001668930054 aaaaa
r1.449999690055847 aaaad

#1180000
1aaaab

#1190000
0aaaab

#1200000
r1.00000011920929 aaaaa
r1.499999642372131 aaaad

#1240000
1aaaab

#1250000
0aaaab

#1260000
r1.050000071525574 aaaaa
r1.549999594688416 aaaad

#1300000
1aaaab

#1310000
0aaaab

#1320000
r1.100000023841858 aaaaa
r1.5999995470047 aaaad

#1360000
1aaaab

#1370000
0aaaab

#1380000
r1.149999976158142 aaaaa
r1.649999499320984 aaaad

#1420000
1aaaab

#1430000
0aaaab

#1440000
r1.199999928474426 aaaaa
r1.699999451637268 aaaad

#1480000
1aaaab

#1490000
0aaaab

#1500000
r1.24999988079071 aaaaa
r1.749999403953552 aaaad

#1540000
1aaaab

#1550000
0aaaab

#1560000
r1.299999833106995 aaaaa
r1.799999356269836 aaaad

#1600000
1aaaab

#1610000
0aaaab

#1620000
r1.349999785423279 aaaaa
r1.849999308586121 aaaad

#1660000
1aaaab

#1670000
0aaaab

#1680000
r1.399999737739563 aaaaa
r1.899999260902405 aaaad

#1720000
1aaaab

#1730000
0aaaab

#1740000
r1.449999690055847 aaaaa
r1.949999213218689 aaaad

#1760000
1aaaaj
1aaaak

#1780000
1aaaab

#1790000
0aaaab

#1800000
r1.499999642372131 aaaaa
r1.999999165534973 aaaad

#1840000
1aaaab

#1850000
0aaaab

#1860000
r1.549999594688416 aaaaa
r2.049999237060547 aaaad

#1880000
0aaaaj
0aaaak
b100 aaaal

#1900000
1aaaab

#1910000
0aaaab

#1920000
r1.5999995470047 aaaaa
r2.099999189376831 aaaad

#1960000
1aaaab

#1970000
0aaaab

#1980000
r1.649999499320984 aaaaa
r2.149999141693115 aaaad

#2020000
1aaaab

#2030000
0aaaab

#2040000
r1.699999451637268 aaaaa
r2.199999094009399 aaaad

#2080000
1aaaab

#2090000
0aaaab

#2100000
r1.749999403953552 aaaaa
r2.249999046325684 aaaad

#2140000
1aaaab

#2150000
0aaaab

#2160000
r1.799999356269836 aaaaa
r2.299998998641968 aaaad

#2200000
1aaaab

#2210000
0aaaab

#2220000
r1.849999308586121 aaaaa
r2.349998950958252 aaaad

#2260000
1aaaab

#2270000
0aaaab

#2280000
r1.899999260902405 aaaaa
r2.399998903274536 aaaad

#2320000
1aaaab

#2330000
0aaaab

#2340000
r1.949999213218689 aaaaa
r2.44999885559082 aaaad

#2380000
1aaaab

#2390000
0aaaab

#2400000
r1.999999165534973 aaaaa
r2.499998807907105 aaaad

#2440000
1aaaab

#2450000
0aaaab

#2460000
r2.049999237060547 aaaaa
r2.549998760223389 aaaad

#2500000
1aaaab

#2510000
0aaaab

#2520000
r2.099999189376831 aaaaa
r2.599998712539673 aaaad

#2560000
1aaaab

#2570000
0aaaab

#2580000
r2.149999141693115 aaaaa
r2.649998664855957 aaaad

#2620000
1aaaab

#2630000
0aaaab

#2640000
r2.199999094009399 aaaaa
r2.699998617172241 aaaad

#2680000
1aaaab

#2690000
0aaaab

#2700000
r2.249999046325684 aaaaa
r2.749998569488525 aaaad

#2740000
1aaaab

#2750000
0aaaab

#2760000
r2.299998998641968 aaaaa
r2.79999852180481 aaaad

#2800000
1aaaab

#2810000
0aaaab

#2820000
r2.349998950958252 aaaaa
r2.849998474121094 aaaad

#2860000
1aaaab

#2870000
0aaaab

#2880000
r2.399998903274536 aaaaa
r2.899998426437378 aaaad

#2920000
1aaaab

#2930000
0aaaab

#2940000
r2.44999885559082 aaaaa
r2.949998378753662 aaaad

#2960000
1aaaaj
1aaaak

#2980000
1aaaab

#2990000
0aaaab

#3000000
r2.499998807907105 aaaaa
r2.999998331069946 aaaad

#3040000
1aaaab

#3050000
0aaaab

#3060000
r2.549998760223389 aaaaa
r3.049998283386231 aaaad

#3080000
0aaaaj
0aaaak
b101 aaaal

#3100000
1aaaab

#3110000
0aaaab

#3120000
r2.599998712539673 aaaaa
r3.099998235702515 aaaad

#3160000
1aaaab

#3170000
0aaaab

#3180000
r2.649998664855957 aaaaa
r3.149998188018799 aaaad

#3220000
1aaaab

#3230000
0aaaab

#3240000
r2.699998617172241 aaaaa
r3.199998140335083 aaaad

#3280000
1aaaab

#3290000
0aaaab

#3300000
r2.749998569488525 aaaaa
r3.249998092651367 aaaad

#3340000
1aaaab

#3350000
0aaaab

#3360000
r2.79999852180481 aaaaa
r3.299998044967651 aaaad

#3400000
1aaaab

#3410000
0aaaab

#3420000
r2.849998474121094 aaaaa
r3.349997997283936 aaaad

#3460000
1aaaab

#3470000
0aaaab

#3480000
r2.899998426437378 aaaaa
r3.39999794960022 aaaad

#3520000
1aaaab

#3530000
0aaaab

#3540000
r2.949998378753662 aaaaa
r3.449997901916504 aaaad

#3580000
1aaaab

#3590000
0aaaab

#3600000
r2.999998331069946 aaaaa
r3.499997854232788 aaaad

#3640000
1aaaab

#3650000
0aaaab

#3660000
r3.049998283386231 aaaaa
r3.549997806549072 aaaad

#3700000
1aaaab

#3710000
0aaaab

#3720000
r3.099998235702515 aaaaa
r3.599997758865356 aaaad

#3760000
1aaaab

#3770000
0aaaab

#3780000
r3.149998188018799 aaaaa
r3.649997711181641 aaaad

#3820000
1aaaab

#3830000
0aaaab

#3840000
r3.199998140335083 aaaaa
r3.699997663497925 aaaad

#3880000
1aaaab

#3890000
0aaaab

#3900000
r3.249998092651367 aaaaa
r3.749997615814209 aaaad

#3940000
1aaaab

#3950000
0aaaab

#3960000
r3.299998044967651 aaaaa
r3.799997568130493 aaaad

#4000000
1aaaab

#4010000
0aaaab

#4020000
r3.349997997283936 aaaaa
r3.849997520446777 aaaad

#4060000
1aaaab

#4070000
0aaaab

#4080000
r3.39999794960022 aaaaa
r3.899997472763062 aaaad

#4100000
1aaaaf

#4120000
1aaaab

#4130000
0aaaab

#4140000
r3.449997901916504 aaaaa

#4180000
1aaaab

#4190000
0aaaab

#4200000
r3.499997854232788 aaaaa

#4240000
1aaaab

#4250000
0aaaab

#4260000
r3.549997806549072 aaaaa

#4300000
1aaaab

#4310000
0aaaab

#4320000
r3.599997758865356 aaaaa

#4360000
1aaaab

#4370000
0aaaab

#4380000
r3.649997711181641 aaaaa

#4420000
1aaaab

#4430000
0aaaab

#4440000
r3.699997663497925 aaaaa

#4480000
1aaaab

#4490000
0aaaab

#4500000
r3.749997615814209 aaaaa

#4540000
1aaaab

#4550000
0aaaab

#4560000
r3.799997568130493 aaaaa

#4600000
1aaaab

#4610000
0aaaab

#4620000
r3.849997520446777 aaaaa

#4660000
1aaaab

#4670000
0aaaab

#4680000
r3.899997472763062 aaaaa

#4720000
1aaaab

#4730000
0aaaab

#4740000
r3.949997425079346 aaaaa

#4780000
1aaaab

#4790000
0aaaab

#4800000
r3.99999737739563 aaaaa

#4840000
1aaaab

#4850000
0aaaab

#4860000
r4.049997329711914 aaaaa

#4880000
0aaaaf

#4900000
1aaaab

#4910000
0aaaab

#4920000
r4.099997520446777 aaaaa
r3.949997425079346 aaaad

#4940000
1aaaaj
1aaaak

#4960000
1aaaab

#4970000
0aaaab

#4980000
r4.149997711181641 aaaaa
r3.99999737739563 aaaad

#5020000
1aaaab

#5030000
0aaaab

#5040000
r4.199997901916504 aaaaa
r4.049997329711914 aaaad

#5060000
0aaaaj
0aaaak
b110 aaaal

#5080000
1aaaab

#5090000
0aaaab

#5100000
r4.249998092651367 aaaaa
r4.099997520446777 aaaad

#5140000
1aaaab

#5150000
0aaaab

#5160000
r4.299998283386231 aaaaa
r4.149997711181641 aaaad

#5200000
1aaaab

#5210000
0aaaab

#5220000
r4.349998474121094 aaaaa
r4.199997901916504 aaaad

#5260000
1aaaab

#5270000
0aaaab

#5280000
r4.399998664855957 aaaaa
r4.249998092651367 aaaad

#5320000
1aaaab

#5330000
0aaaab

#5340000
r4.44999885559082 aaaaa
r4.299998283386231 aaaad

#5380000
1aaaab

#5390000
0aaaab

#5400000
r4.499999046325684 aaaaa
r4.349998474121094 aaaad

#5440000
1aaaab

#5450000
0aaaab

#5460000
r4.549999237060547 aaaaa
r4.399998664855957 aaaad

#5500000
1aaaab

#5510000
0aaaab

#5520000
r4.59999942779541 aaaaa
r4.44999885559082 aaaad

#5560000
1aaaab

#5570000
0aaaab

#5580000
r4.649999618530273 aaaaa
r4.499999046325684 aaaad

#5620000
1aaaab

#5630000
0aaaab

#5640000
r4.699999809265137 aaaaa
r4.549999237060547 aaaad

#5680000
1aaaab

#5690000
0aaaab

#5700000
r4.75 aaaaa
r4.59999942779541 aaaad

#5740000
1aaaab

#5750000
0aaaab

#5760000
r4.800000190734863 aaaaa
r4.649999618530273 aaaad

#5800000
1aaaab

#5810000
0aaaab

#5820000
r4.850000381469727 aaaaa
r4.699999809265137 aaaad

#5860000
1aaaab

#5870000
0aaaab

#5880000
r4.90000057220459 aaaaa
r4.75 aaaad

#5920000
1aaaab

#5930000
0aaaab

#5940000
r4.950000762939453 aaaaa
r4.800000190734863 aaaad

#5980000
1aaaab

#5990000
0aaaab

#6000000
r5.000000953674316 aaaaa
r4.850000381469727 aaaad

#6040000
1aaaab

#6050000
0aaaab

#6060000
r5.05000114440918 aaaaa
r4.90000057220459 aaaad

#6080000
r0 aaaag
1aaaaj
1aaaak

#6100000
1aaaab

#6110000
0aaaab

#6120000
r5.100001335144043 aaaaa

#6160000
1aaaab

#6170000
0aaaab

#6180000
r5.150001525878906 aaaaa

#6220000
1aaaab

#6230000
0aaaab

#6240000
r5.20000171661377 aaaaa

#6280000
1aaaab

#6290000
0aaaab

#6300000
r5.250001907348633 aaaaa

#6340000
1aaaab

#6350000
0aaaab

#6360000
r5.300002098083496 aaaaa

#6400000
1aaaab

#6410000
0aaaab

#6420000
r5.350002288818359 aaaaa

#6460000
1aaaab

#6470000
0aaaab

#6480000
r5.400002479553223 aaaaa

#6520000
1aaaab

#6530000
0aaaab

#6540000
r5.450002670288086 aaaaa

#6580000
1aaaab

#6590000
0aaaab

#6600000
r5.500002861022949 aaaaa

#6640000
1aaaab

#6650000
0aaaab

#6660000
r5.550003051757813 aaaaa

#6700000
1aaaab

#6710000
0aaaab

#6720000
r5.600003242492676 aaaaa

#6760000
1aaaab

#6770000
0aaaab

#6780000
r5.650003433227539 aaaaa

#6820000
1aaaab

#6830000
0aaaab

#6840000
r5.700003623962402 aaaaa

#6880000
1aaaab

#6890000
0aaaab

#6900000
r5.750003814697266 aaaaa

#6940000
1aaaab

#6950000
0aaaab

#6960000
r5.800004005432129 aaaaa

#7000000
1aaaab

#7010000
0aaaab

#7020000
r5.850004196166992 aaaaa

#7060000
1aaaab

#7070000
0aaaab

#7080000
r5.900004386901856 aaaaa

#7120000
1aaaab

#7130000
0aaaab

#7140000
r5.950004577636719 aaaaa

#7180000
1aaaab

#7190000
0aaaab

#7200000
r6.000004768371582 aaaaa

#7240000
1aaaab

#7250000
0aaaab

#7260000
r6.050004959106445 aaaaa

#7300000
1aaaab

#7310000
0aaaab

#7320000
r6.100005149841309 aaaaa

#7360000
1aaaab

#7370000
0aaaab

#7380000
r6.150005340576172 aaaaa

#7420000
1aaaab

#7430000
0aaaab

#7440000
r6.200005531311035 aaaaa

#7480000
1aaaab

#7490000
0aaaab

#7500000
r6.250005722045898 aaaaa

#7540000
1aaaab

#7550000
0aaaab

#7560000
r6.300005912780762 aaaaa

#7600000
1aaaab

#7610000
0aaaab

#7620000
r6.350006103515625 aaaaa

#7660000
1aaaab

#7670000
0aaaab

#7680000
r6.400006294250488 aaaaa

#7720000
1aaaab

#7730000
0aaaab

#7740000
r6.450006484985352 aaaaa

#7780000
1aaaab

#7790000
0aaaab

#7800000
r6.500006675720215 aaaaa

#7840000
1aaaab

#7850000
0aaaab

#7860000
r6.550006866455078 aaaaa

#7900000
1aaaab

#7910000
0aaaab

#7920000
r6.600007057189941 aaaaa

#7960000
1aaaab

#7970000
0aaaab

#7980000
r6.650007247924805 aaaaa

#8020000
1aaaab

#8030000
0aaaab

#8040000
r6.700007438659668 aaaaa

#8080000
1aaaab

#8090000
0aaaab

#8100000
r6.750007629394531 aaaaa

#8140000
1aaaab

#8150000
0aaaab

#8160000
r6.800007820129395 aaaaa

#8200000
1aaaab

#8210000
0aaaab

#8220000
r6.850008010864258 aaaaa

#8260000
1aaaab

#8270000
0aaaab

#8280000
r6.900008201599121 aaaaa

#8320000
1aaaab

#8330000
0aaaab

#8340000
r6.950008392333984 aaaaa

#8380000
1aaaab

#8390000
0aaaab

#8400000
r7.000008583068848 aaaaa

#8440000
1aaaab

#8450000
0aaaab

#8460000
r7.050008773803711 aaaaa

#8500000
1aaaab

#8510000
0aaaab

#8520000
r7.100008964538574 aaaaa

#8560000
1aaaab

#8570000
0aaaab

#8580000
r7.150009155273438 aaaaa

#8620000
1aaaab

#8630000
0aaaab

#8640000
r7.200009346008301 aaaaa

#8680000
1aaaab

#8690000
0aaaab

#8700000
r7.250009536743164 aaaaa

#8740000
1aaaab

#8750000
0aaaab

#8760000
r7.300009727478027 aaaaa

#8800000
1aaaab

#8810000
0aaaab

#8820000
r7.350009918212891 aaaaa

#8860000
1aaaab

#8870000
0aaaab

#8880000
r7.400010108947754 aaaaa

#8920000
1aaaab

#8930000
0aaaab

#8940000
r7.450010299682617 aaaaa

#8980000
1aaaab

#8990000
0aaaab

#9000000
r7.500010490417481 aaaaa

#9040000
1aaaab

#9050000
0aaaab

#9060000
r7.550010681152344 aaaaa

#9100000
1aaaab

#9110000
0aaaab

#9120000
r7.600010871887207 aaaaa

#9160000
1aaaab

#9170000
0aaaab

#9180000
r7.65001106262207 aaaaa

#9220000
1aaaab

#9230000
0aaaab

#9240000
r7.700011253356934 aaaaa

#9280000
1aaaab

#9290000
0aaaab

#9300000
r7.750011444091797 aaaaa

#9340000
1aaaab

#9350000
0aaaab

#9360000
r7.80001163482666 aaaaa

#9400000
1aaaab

#9410000
0aaaab

#9420000
r7.850011825561523 aaaaa

#9460000
1aaaab

#9470000
0aaaab

#9480000
r7.900012016296387 aaaaa

#9520000
1aaaab

#9530000
0aaaab

#9540000
r7.95001220703125 aaaaa

#9580000
1aaaab

#9590000
0aaaab

#9600000
r8.000012397766113 aaaaa

#9640000
1aaaab

#9650000
0aaaab

#9660000
r8.050012588500977 aaaaa

#9700000
1aaaab

#9710000
0aaaab

#9720000
r8.10001277923584 aaaaa

#9760000
1aaaab

#9770000
0aaaab

#9780000
r8.150012969970703 aaaaa

#9820000
1aaaab

#9830000
0aaaab

#9840000
r8.200013160705566 aaaaa

#9880000
1aaaab

#9890000
0aaaab

#9900000
r8.25001335144043 aaaaa

#9940000
1aaaab

#9950000
0aaaab

#9960000
r8.300013542175293 aaaaa

#10000000
1aaaab

#10010000
0aaaab

#10020000
r8.350013732910156 aaaaa

#10060000
1aaaab

#10070000
0aaaab

#10080000
r8.40001392364502 aaaaa

#10120000
1aaaab

#10130000
0aaaab

#10140000
r8.450014114379883 aaaaa

#10180000
1aaaab

#10190000
0aaaab

#10200000
r8.500014305114746 aaaaa

#10240000
1aaaab

#10250000
0aaaab

#10260000
r8.550014495849609 aaaaa

#10300000
1aaaab

#10310000
0aaaab

#10320000
r8.600014686584473 aaaaa

#10360000
1aaaab

#10370000
0aaaab

#10380000
r8.650014877319336 aaaaa

#10420000
1aaaab

#10430000
0aaaab

#10440000
r8.700015068054199 aaaaa

#10480000
1aaaab

#10490000
0aaaab

#10500000
r8.750015258789063 aaaaa

#10540000
1aaaab

#10550000
0aaaab

#10560000
r8.800015449523926 aaaaa

#10600000
1aaaab

#10610000
0aaaab

#10620000
r8.850015640258789 aaaaa

#10660000
1aaaab

#10670000
0aaaab

#10680000
r8.900015830993652 aaaaa

#10720000
1aaaab

#10730000
0aaaab

#10740000
r8.950016021728516 aaaaa

#10780000
1aaaab

#10790000
0aaaab

#10800000
r9.000016212463379 aaaaa

#10840000
1aaaab

#10850000
0aaaab

#10860000
r9.050016403198242 aaaaa

#10900000
1aaaab

#10910000
0aaaab

#10920000
r9.100016593933106 aaaaa

#10960000
1aaaab

#10970000
0aaaab

#10980000
r9.150016784667969 aaaaa

#11020000
1aaaab

#11030000
0aaaab

#11040000
r9.200016975402832 aaaaa

#11060000
1aaaaf

#11080000
1aaaab

#11090000
0aaaab

#11100000
r9.250017166137695 aaaaa

#11140000
1aaaab

#11150000
0aaaab

#11160000
r9.300017356872559 aaaaa

#11200000
1aaaab

#11210000
0aaaab

#11220000
r9.350017547607422 aaaaa

#11260000
1aaaab

#11270000
0aaaab

#11280000
r9.400017738342285 aaaaa

#11320000
1aaaab

#11330000
0aaaab

#11340000
r9.450017929077148 aaaaa

#11380000
1aaaab

#11390000
0aaaab

#11400000
r9.500018119812012 aaaaa

#11440000
1aaaab

#11450000
0aaaab

#11460000
r9.550018310546875 aaaaa

#11500000
1aaaab

#11510000
0aaaab

#11520000
r9.600018501281738 aaaaa

#11560000
1aaaab

#11570000
0aaaab

#11580000
r9.650018692016602 aaaaa

#11620000
1aaaab

#11630000
0aaaab

#11640000
r9.700018882751465 aaaaa

#11680000
1aaaab

#11690000
0aaaab

#11700000
r9.750019073486328 aaaaa

#11740000
1aaaab

#11750000
0aaaab

#11760000
r9.800019264221191 aaaaa

#11800000
1aaaab

#11810000
0aaaab

#11820000
r9.850019454956055 aaaaa

#11860000
1aaaab

#11870000
0aaaab

#11880000
r9.900019645690918 aaaaa

#11900000
0aaaaf

#11920000
1aaaab

#11930000
0aaaab

#11940000
r9.950019836425781 aaaaa

#11980000
1aaaab

#11990000
0aaaab

#12000000
r10.00002002716065 aaaaa

