wave.vcd
$date
     Mar 04, 2017       17:45:41
$end

$version
 SystemC 2.3.1-Accellera --- Feb  5 2017 13:42:50
$end

$timescale
     1 ps
$end

$scope module SystemC $end
$var real    1  aaaaa  time       $end
$var wire    1  aaaab  robot_clock       $end
$var wire   32  aaaac  robot0.direction [31:0]  $end
$var real    1  aaaad  robot0.x       $end
$var real    1  aaaae  robot0.y       $end
$var wire    1  aaaaf  obstacle       $end
$var real    1  aaaag  velocity       $end
$var wire    1  aaaah  stop       $end
$var wire   32  aaaai  direction [31:0]  $end
$var wire    1  aaaaj  near_boundary       $end
$var wire    1  aaaak  robot_is_crossing       $end
$var wire   32  aaaal  path [31:0]  $end
$upscope $end
$enddefinitions  $end

$comment
All initial values are dumped below at time 0 sec = 0 timescale units.
$end

$dumpvars
r0 aaaaa
0aaaab
b11 aaaac
r0.5 aaaad
r-0.5 aaaae
0aaaaf
r1 aaaag
0aaaah
b11 aaaai
0aaaaj
0aaaak
b10 aaaal
$end

#40000
1aaaab

#50000
0aaaab

#60000
r0.05000000074505806 aaaaa
r0.550000011920929 aaaad

#100000
1aaaab

#110000
0aaaab

#120000
r0.1000000014901161 aaaaa
r0.6000000238418579 aaaad

#160000
1aaaab

#170000
0aaaab

#180000
r0.1500000059604645 aaaaa
r0.6500000357627869 aaaad

#220000
1aaaab

#230000
0aaaab

#240000
r0.2000000029802322 aaaaa
r0.7000000476837158 aaaad

#280000
1aaaab

#290000
0aaaab

#300000
r0.25 aaaaa
r0.7500000596046448 aaaad

#340000
1aaaab

#350000
0aaaab

#360000
r0.300000011920929 aaaaa
r0.8000000715255737 aaaad

#400000
1aaaab

#410000
0aaaab

#420000
r0.3500000238418579 aaaaa
r0.8500000834465027 aaaad

#460000
1aaaab

#470000
0aaaab

#480000
r0.4000000357627869 aaaaa
r0.9000000953674316 aaaad

#500000
1aaaaj
1aaaak

#520000
1aaaab

#530000
0aaaab

#540000
r0.4500000476837158 aaaaa
r0.9500001072883606 aaaad

#580000
1aaaab

#590000
0aaaab

#600000
r0.5000000596046448 aaaaa
r1.00000011920929 aaaad

#620000
0aaaaj
0aaaak
b11 aaaal

#640000
1aaaab

#650000
0aaaab

#660000
r0.5500000715255737 aaaaa
r1.050000071525574 aaaad

#700000
1aaaab

#710000
0aaaab

#720000
r0.6000000834465027 aaaaa
r1.100000023841858 aaaad

#760000
1aaaab

#770000
0aaaab

#780000
r0.6500000953674316 aaaaa
r1.149999976158142 aaaad

#820000
1aaaab

#830000
0aaaab

#840000
r0.7000001072883606 aaaaa
r1.199999928474426 aaaad

#880000
1aaaab

#890000
0aaaab

#900000
r0.7500001192092896 aaaaa
r1.24999988079071 aaaad

#940000
1aaaab

#950000
0aaaab

#960000
r0.8000001311302185 aaaaa
r1.299999833106995 aaaad

#1000000
1aaaab

#1010000
0aaaab

#1020000
r0.8500001430511475 aaaaa
r1.349999785423279 aaaad

#1060000
1aaaab

#1070000
0aaaab

#1080000
r0.9000001549720764 aaaaa
r1.399999737739563 aaaad

#1120000
1aaaab

#1130000
0aaaab

#1140000
r0.9500001668930054 aaaaa
r1.449999690055847 aaaad

#1180000
1aaaab

#1190000
0aaaab

#1200000
r1.00000011920929 aaaaa
r1.499999642372131 aaaad

#1240000
1aaaab

#1250000
0aaaab

#1260000
r1.050000071525574 aaaaa
r1.549999594688416 aaaad

#1300000
1aaaab

#1310000
0aaaab

#1320000
r1.100000023841858 aaaaa
r1.5999995470047 aaaad

#1360000
1aaaab

#1370000
0aaaab

#1380000
r1.149999976158142 aaaaa
r1.649999499320984 aaaad

#1420000
1aaaab

#1430000
0aaaab

#1440000
r1.199999928474426 aaaaa
r1.699999451637268 aaaad

#1480000
1aaaab

#1490000
0aaaab

#1500000
r1.24999988079071 aaaaa
r1.749999403953552 aaaad

#1540000
1aaaab

#1550000
0aaaab

#1560000
r1.299999833106995 aaaaa
r1.799999356269836 aaaad

#1600000
1aaaab

#1610000
0aaaab

#1620000
r1.349999785423279 aaaaa
r1.849999308586121 aaaad

#1660000
1aaaab

#1670000
0aaaab

#1680000
r1.399999737739563 aaaaa
r1.899999260902405 aaaad

#1720000
1aaaab

#1730000
0aaaab

#1740000
r1.449999690055847 aaaaa
r1.949999213218689 aaaad

#1760000
1aaaaj
1aaaak

#1780000
1aaaab

#1790000
0aaaab

#1800000
r1.499999642372131 aaaaa
r1.999999165534973 aaaad

#1840000
1aaaab

#1850000
0aaaab

#1860000
r1.549999594688416 aaaaa
r2.049999237060547 aaaad

#1880000
0aaaaj
0aaaak
b100 aaaal

#1900000
1aaaab

#1910000
0aaaab

#1920000
r1.5999995470047 aaaaa
r2.099999189376831 aaaad

#1960000
1aaaab

#1970000
0aaaab

#1980000
r1.649999499320984 aaaaa
r2.149999141693115 aaaad

#2020000
1aaaab

#2030000
0aaaab

#2040000
r1.699999451637268 aaaaa
r2.199999094009399 aaaad

#2080000
1aaaab

#2090000
0aaaab

#2100000
r1.749999403953552 aaaaa
r2.249999046325684 aaaad

#2140000
1aaaab

#2150000
0aaaab

#2160000
r1.799999356269836 aaaaa
r2.299998998641968 aaaad

#2200000
1aaaab

#2210000
0aaaab

#2220000
r1.849999308586121 aaaaa
r2.349998950958252 aaaad

#2260000
1aaaab

#2270000
0aaaab

#2280000
r1.899999260902405 aaaaa
r2.399998903274536 aaaad

#2320000
1aaaab

#2330000
0aaaab

#2340000
r1.949999213218689 aaaaa
r2.44999885559082 aaaad

#2380000
1aaaab

#2390000
0aaaab

#2400000
r1.999999165534973 aaaaa
r2.499998807907104 aaaad

#2440000
1aaaab

#2450000
0aaaab

#2460000
r2.049999237060547 aaaaa
r2.549998760223389 aaaad

#2500000
1aaaab

#2510000
0aaaab

#2520000
r2.099999189376831 aaaaa
r2.599998712539673 aaaad

#2560000
1aaaab

#2570000
0aaaab

#2580000
r2.149999141693115 aaaaa
r2.649998664855957 aaaad

#2620000
1aaaab

#2630000
0aaaab

#2640000
r2.199999094009399 aaaaa
r2.699998617172241 aaaad

#2680000
1aaaab

#2690000
0aaaab

#2700000
r2.249999046325684 aaaaa
r2.749998569488525 aaaad

#2740000
1aaaab

#2750000
0aaaab

#2760000
r2.299998998641968 aaaaa
r2.79999852180481 aaaad

#2800000
1aaaab

#2810000
0aaaab

#2820000
r2.349998950958252 aaaaa
r2.849998474121094 aaaad

#2860000
1aaaab

#2870000
0aaaab

#2880000
r2.399998903274536 aaaaa
r2.899998426437378 aaaad

#2920000
1aaaab

#2930000
0aaaab

#2940000
r2.44999885559082 aaaaa
r2.949998378753662 aaaad

#2960000
1aaaaj
1aaaak

#2980000
1aaaab

#2990000
0aaaab

#3000000
r2.499998807907104 aaaaa
r2.999998331069946 aaaad

#3040000
1aaaab

#3050000
0aaaab

#3060000
r2.549998760223389 aaaaa
r3.04999828338623 aaaad

#3080000
0aaaaj
0aaaak
b101 aaaal

#3100000
1aaaab

#3110000
0aaaab

#3120000
r2.599998712539673 aaaaa
r3.099998235702515 aaaad

#3160000
1aaaab

#3170000
0aaaab

#3180000
r2.649998664855957 aaaaa
r3.149998188018799 aaaad

#3220000
1aaaab

#3230000
0aaaab

#3240000
r2.699998617172241 aaaaa
r3.199998140335083 aaaad

#3280000
1aaaab

#3290000
0aaaab

#3300000
r2.749998569488525 aaaaa
r3.249998092651367 aaaad

#3340000
1aaaab

#3350000
0aaaab

#3360000
r2.79999852180481 aaaaa
r3.299998044967651 aaaad

#3400000
1aaaab

#3410000
0aaaab

#3420000
r2.849998474121094 aaaaa
r3.349997997283936 aaaad

#3460000
1aaaab

#3470000
0aaaab

#3480000
r2.899998426437378 aaaaa
r3.39999794960022 aaaad

#3520000
1aaaab

#3530000
0aaaab

#3540000
r2.949998378753662 aaaaa
r3.449997901916504 aaaad

#3580000
1aaaab

#3590000
0aaaab

#3600000
r2.999998331069946 aaaaa
r3.499997854232788 aaaad

#3640000
1aaaab

#3650000
0aaaab

#3660000
r3.04999828338623 aaaaa
r3.549997806549072 aaaad

#3700000
1aaaab

#3710000
0aaaab

#3720000
r3.099998235702515 aaaaa
r3.599997758865356 aaaad

#3760000
1aaaab

#3770000
0aaaab

#3780000
r3.149998188018799 aaaaa
r3.649997711181641 aaaad

#3820000
1aaaab

#3830000
0aaaab

#3840000
r3.199998140335083 aaaaa
r3.699997663497925 aaaad

#3880000
1aaaab

#3890000
0aaaab

#3900000
r3.249998092651367 aaaaa
r3.749997615814209 aaaad

#3940000
1aaaab

#3950000
0aaaab

#3960000
r3.299998044967651 aaaaa
r3.799997568130493 aaaad

#4000000
1aaaab

#4010000
0aaaab

#4020000
r3.349997997283936 aaaaa
r3.849997520446777 aaaad

#4060000
1aaaab

#4070000
0aaaab

#4080000
r3.39999794960022 aaaaa
r3.899997472763062 aaaad

#4100000
1aaaaf

#4120000
1aaaab

#4130000
0aaaab

#4140000
r3.449997901916504 aaaaa

#4180000
1aaaab

#4190000
0aaaab

#4200000
r3.499997854232788 aaaaa

#4240000
1aaaab

#4250000
0aaaab

#4260000
r3.549997806549072 aaaaa

#4300000
1aaaab

#4310000
0aaaab

#4320000
r3.599997758865356 aaaaa

#4360000
1aaaab

#4370000
0aaaab

#4380000
r3.649997711181641 aaaaa

#4420000
1aaaab

#4430000
0aaaab

#4440000
r3.699997663497925 aaaaa

#4480000
1aaaab

#4490000
0aaaab

#4500000
r3.749997615814209 aaaaa

#4540000
1aaaab

#4550000
0aaaab

#4560000
r3.799997568130493 aaaaa

#4600000
1aaaab

#4610000
0aaaab

#4620000
r3.849997520446777 aaaaa

#4660000
1aaaab

#4670000
0aaaab

#4680000
r3.899997472763062 aaaaa

#4720000
1aaaab

#4730000
0aaaab

#4740000
r3.949997425079346 aaaaa

#4780000
1aaaab

#4790000
0aaaab

#4800000
r3.99999737739563 aaaaa

#4840000
1aaaab

#4850000
0aaaab

#4860000
r4.049997329711914 aaaaa

#4880000
0aaaaf

#4900000
1aaaab

#4910000
0aaaab

#4920000
r4.099997520446777 aaaaa
r3.949997425079346 aaaad

#4940000
1aaaaj
1aaaak

#4960000
1aaaab

#4970000
0aaaab

#4980000
r4.149997711181641 aaaaa
r3.99999737739563 aaaad

#5020000
1aaaab

#5030000
0aaaab

#5040000
r4.199997901916504 aaaaa
r4.049997329711914 aaaad

#5060000
0aaaaj
0aaaak
b110 aaaal

#5080000
1aaaab

#5090000
0aaaab

#5100000
r4.249998092651367 aaaaa
r4.099997520446777 aaaad

#5140000
1aaaab

#5150000
0aaaab

#5160000
r4.29999828338623 aaaaa
r4.149997711181641 aaaad

#5200000
1aaaab

#5210000
0aaaab

#5220000
r4.349998474121094 aaaaa
r4.199997901916504 aaaad

#5260000
1aaaab

#5270000
0aaaab

#5280000
r4.399998664855957 aaaaa
r4.249998092651367 aaaad

#5320000
1aaaab

#5330000
0aaaab

#5340000
r4.44999885559082 aaaaa
r4.29999828338623 aaaad

#5380000
1aaaab

#5390000
0aaaab

#5400000
r4.499999046325684 aaaaa
r4.349998474121094 aaaad

#5440000
1aaaab

#5450000
0aaaab

#5460000
r4.549999237060547 aaaaa
r4.399998664855957 aaaad

#5500000
1aaaab

#5510000
0aaaab

#5520000
r4.59999942779541 aaaaa
r4.44999885559082 aaaad

#5560000
1aaaab

#5570000
0aaaab

#5580000
r4.649999618530273 aaaaa
r4.499999046325684 aaaad

#5620000
1aaaab

#5630000
0aaaab

#5640000
r4.699999809265137 aaaaa
r4.549999237060547 aaaad

#5680000
1aaaab

#5690000
0aaaab

#5700000
r4.75 aaaaa
r4.59999942779541 aaaad

#5740000
1aaaab

#5750000
0aaaab

#5760000
r4.800000190734863 aaaaa
r4.649999618530273 aaaad

#5800000
1aaaab

#5810000
0aaaab

#5820000
r4.850000381469727 aaaaa
r4.699999809265137 aaaad

#5860000
1aaaab

#5870000
0aaaab

#5880000
r4.90000057220459 aaaaa
r4.75 aaaad

#5920000
1aaaab

#5930000
0aaaab

#5940000
r4.950000762939453 aaaaa
r4.800000190734863 aaaad

#5980000
1aaaab

#5990000
0aaaab

#6000000
r5.000000953674316 aaaaa
r4.850000381469727 aaaad

#6040000
1aaaab

#6050000
0aaaab

#6060000
r5.05000114440918 aaaaa
r4.90000057220459 aaaad

#6080000
1aaaaj
1aaaak

#6100000
1aaaab

#6110000
0aaaab

#6120000
r5.100001335144043 aaaaa
r4.950000762939453 aaaad

#6160000
1aaaab

#6170000
0aaaab

#6180000
r5.150001525878906 aaaaa
r5.000000953674316 aaaad

#6200000
0aaaaj
0aaaak
b111 aaaal

#6220000
1aaaab

#6230000
0aaaab

#6240000
r5.20000171661377 aaaaa
r5.05000114440918 aaaad

#6280000
1aaaab

#6290000
0aaaab

#6300000
r5.250001907348633 aaaaa
r5.100001335144043 aaaad

#6340000
1aaaab

#6350000
0aaaab

#6360000
r5.300002098083496 aaaaa
r5.150001525878906 aaaad

#6400000
1aaaab

#6410000
0aaaab

#6420000
r5.350002288818359 aaaaa
r5.20000171661377 aaaad

#6460000
1aaaab

#6470000
0aaaab

#6480000
r5.400002479553223 aaaaa
r5.250001907348633 aaaad

#6520000
1aaaab

#6530000
0aaaab

#6540000
r5.450002670288086 aaaaa
r5.300002098083496 aaaad

#6580000
1aaaab

#6590000
0aaaab

#6600000
r5.500002861022949 aaaaa
r5.350002288818359 aaaad

#6640000
1aaaab

#6650000
0aaaab

#6660000
r5.550003051757812 aaaaa
r5.400002479553223 aaaad

#6700000
1aaaab

#6710000
0aaaab

#6720000
r5.600003242492676 aaaaa
r5.450002670288086 aaaad

#6760000
1aaaab

#6770000
0aaaab

#6780000
r5.650003433227539 aaaaa
r5.500002861022949 aaaad

#6820000
1aaaab

#6830000
0aaaab

#6840000
r5.700003623962402 aaaaa
r5.550003051757812 aaaad

#6880000
1aaaab

#6890000
0aaaab

#6900000
r5.750003814697266 aaaaa
r5.600003242492676 aaaad

#6940000
1aaaab

#6950000
0aaaab

#6960000
r5.800004005432129 aaaaa
r5.650003433227539 aaaad

#7000000
1aaaab

#7010000
0aaaab

#7020000
r5.850004196166992 aaaaa
r5.700003623962402 aaaad

#7060000
1aaaab

#7070000
0aaaab

#7080000
r5.900004386901855 aaaaa
r5.750003814697266 aaaad

#7120000
1aaaab

#7130000
0aaaab

#7140000
r5.950004577636719 aaaaa
r5.800004005432129 aaaad

#7180000
1aaaab

#7190000
0aaaab

#7200000
r6.000004768371582 aaaaa
r5.850004196166992 aaaad

#7240000
1aaaab

#7250000
0aaaab

#7260000
r6.050004959106445 aaaaa
r5.900004386901855 aaaad

#7280000
1aaaaj
1aaaak

#7300000
1aaaab

#7310000
0aaaab

#7320000
r6.100005149841309 aaaaa
r5.950004577636719 aaaad

#7360000
1aaaab

#7370000
0aaaab

#7380000
r6.150005340576172 aaaaa
r6.000004768371582 aaaad

#7400000
0aaaaj
0aaaak
b1000 aaaal

#7420000
1aaaab

#7430000
0aaaab

#7440000
r6.200005531311035 aaaaa
r6.050004959106445 aaaad

#7480000
1aaaab

#7490000
0aaaab

#7500000
r6.250005722045898 aaaaa
r6.100005149841309 aaaad

#7540000
1aaaab

#7550000
0aaaab

#7560000
r6.300005912780762 aaaaa
r6.150005340576172 aaaad

#7600000
1aaaab

#7610000
0aaaab

#7620000
r6.350006103515625 aaaaa
r6.200005531311035 aaaad

#7660000
1aaaab

#7670000
0aaaab

#7680000
r6.400006294250488 aaaaa
r6.250005722045898 aaaad

#7720000
1aaaab

#7730000
0aaaab

#7740000
r6.450006484985352 aaaaa
r6.300005912780762 aaaad

#7780000
1aaaab

#7790000
0aaaab

#7800000
r6.500006675720215 aaaaa
r6.350006103515625 aaaad

#7840000
1aaaab

#7850000
0aaaab

#7860000
r6.550006866455078 aaaaa
r6.400006294250488 aaaad

#7880000
b1 aaaai

#7900000
1aaaab

#7910000
0aaaab

#7920000
r6.600007057189941 aaaaa
b1 aaaac
r-0.550000011920929 aaaae

#7960000
1aaaab

#7970000
0aaaab

#7980000
r6.650007247924805 aaaaa
r-0.6000000238418579 aaaae

#8020000
1aaaab

#8030000
0aaaab

#8040000
r6.700007438659668 aaaaa
r-0.6500000357627869 aaaae

#8080000
1aaaab

#8090000
0aaaab

#8100000
r6.750007629394531 aaaaa
r-0.7000000476837158 aaaae

#8140000
1aaaab

#8150000
0aaaab

#8160000
r6.800007820129395 aaaaa
r-0.7500000596046448 aaaae

#8200000
1aaaab

#8210000
0aaaab

#8220000
r6.850008010864258 aaaaa
r-0.8000000715255737 aaaae

#8260000
1aaaab

#8270000
0aaaab

#8280000
r6.900008201599121 aaaaa
r-0.8500000834465027 aaaae

#8320000
1aaaab

#8330000
0aaaab

#8340000
r6.950008392333984 aaaaa
r-0.9000000953674316 aaaae

#8360000
1aaaaj
1aaaak

#8380000
1aaaab

#8390000
0aaaab

#8400000
r7.000008583068848 aaaaa
r-0.9500001072883606 aaaae

#8440000
1aaaab

#8450000
0aaaab

#8460000
r7.050008773803711 aaaaa
r-1.00000011920929 aaaae

#8500000
1aaaab

#8510000
0aaaab

#8520000
r7.100008964538574 aaaaa
r-1.050000071525574 aaaae

#8560000
1aaaab

#8570000
0aaaab

#8580000
r7.150009155273438 aaaaa
r-1.100000023841858 aaaae

#8620000
1aaaab

#8630000
0aaaab

#8640000
r7.200009346008301 aaaaa
r-1.149999976158142 aaaae

#8680000
1aaaab

#8690000
0aaaab

#8700000
r7.250009536743164 aaaaa
r-1.199999928474426 aaaae

#8740000
1aaaab

#8750000
0aaaab

#8760000
r7.300009727478027 aaaaa
r-1.24999988079071 aaaae

#8800000
1aaaab

#8810000
0aaaab

#8820000
r7.350009918212891 aaaaa
r-1.299999833106995 aaaae

#8860000
1aaaab

#8870000
0aaaab

#8880000
r7.400010108947754 aaaaa
r-1.349999785423279 aaaae

#8920000
1aaaab

#8930000
0aaaab

#8940000
r7.450010299682617 aaaaa
r-1.399999737739563 aaaae

#8980000
1aaaab

#8990000
0aaaab

#9000000
r7.50001049041748 aaaaa
r-1.449999690055847 aaaae

#9040000
1aaaab

#9050000
0aaaab

#9060000
r7.550010681152344 aaaaa
r-1.499999642372131 aaaae

#9100000
1aaaab

#9110000
0aaaab

#9120000
r7.600010871887207 aaaaa
r-1.549999594688416 aaaae

#9160000
1aaaab

#9170000
0aaaab

#9180000
r7.65001106262207 aaaaa
r-1.5999995470047 aaaae

#9220000
1aaaab

#9230000
0aaaab

#9240000
r7.700011253356934 aaaaa
r-1.649999499320984 aaaae

#9280000
1aaaab

#9290000
0aaaab

#9300000
r7.750011444091797 aaaaa
r-1.699999451637268 aaaae

#9340000
1aaaab

#9350000
0aaaab

#9360000
r7.80001163482666 aaaaa
r-1.749999403953552 aaaae

#9400000
1aaaab

#9410000
0aaaab

#9420000
r7.850011825561523 aaaaa
r-1.799999356269836 aaaae

#9460000
1aaaab

#9470000
0aaaab

#9480000
r7.900012016296387 aaaaa
r-1.849999308586121 aaaae

#9520000
1aaaab

#9530000
0aaaab

#9540000
r7.95001220703125 aaaaa
r-1.899999260902405 aaaae

#9580000
1aaaab

#9590000
0aaaab

#9600000
r8.000012397766113 aaaaa
r-1.949999213218689 aaaae

#9640000
1aaaab

#9650000
0aaaab

#9660000
r8.050012588500977 aaaaa
r-1.999999165534973 aaaae

#9700000
1aaaab

#9710000
0aaaab

#9720000
r8.10001277923584 aaaaa
r-2.049999237060547 aaaae

#9760000
1aaaab

#9770000
0aaaab

#9780000
r8.150012969970703 aaaaa
r-2.099999189376831 aaaae

#9820000
1aaaab

#9830000
0aaaab

#9840000
r8.200013160705566 aaaaa
r-2.149999141693115 aaaae

#9880000
1aaaab

#9890000
0aaaab

#9900000
r8.25001335144043 aaaaa
r-2.199999094009399 aaaae

#9940000
1aaaab

#9950000
0aaaab

#9960000
r8.300013542175293 aaaaa
r-2.249999046325684 aaaae

#10000000
1aaaab

#10010000
0aaaab

#10020000
r8.350013732910156 aaaaa
r-2.299998998641968 aaaae

#10060000
1aaaab

#10070000
0aaaab

#10080000
r8.40001392364502 aaaaa
r-2.349998950958252 aaaae

#10120000
1aaaab

#10130000
0aaaab

#10140000
r8.450014114379883 aaaaa
r-2.399998903274536 aaaae

#10180000
1aaaab

#10190000
0aaaab

#10200000
r8.500014305114746 aaaaa
r-2.44999885559082 aaaae

#10240000
1aaaab

#10250000
0aaaab

#10260000
r8.550014495849609 aaaaa
r-2.499998807907104 aaaae

#10280000
b0 aaaai

#10300000
1aaaab

#10310000
0aaaab

#10320000
r8.600014686584473 aaaaa
b0 aaaac
r-2.44999885559082 aaaae

#10360000
1aaaab

#10370000
0aaaab

#10380000
r8.650014877319336 aaaaa
r-2.399998903274536 aaaae

#10420000
1aaaab

#10430000
0aaaab

#10440000
r8.700015068054199 aaaaa
r-2.349998950958252 aaaae

#10480000
1aaaab

#10490000
0aaaab

#10500000
r8.750015258789062 aaaaa
r-2.299998998641968 aaaae

#10540000
1aaaab

#10550000
0aaaab

#10560000
r8.800015449523926 aaaaa
r-2.249999046325684 aaaae

#10600000
1aaaab

#10610000
0aaaab

#10620000
r8.850015640258789 aaaaa
r-2.199999094009399 aaaae

#10660000
1aaaab

#10670000
0aaaab

#10680000
r8.900015830993652 aaaaa
r-2.149999141693115 aaaae

#10720000
1aaaab

#10730000
0aaaab

#10740000
r8.950016021728516 aaaaa
r-2.099999189376831 aaaae

#10780000
1aaaab

#10790000
0aaaab

#10800000
r9.000016212463379 aaaaa
r-2.049999237060547 aaaae

#10840000
1aaaab

#10850000
0aaaab

#10860000
r9.050016403198242 aaaaa
r-1.999999284744263 aaaae

#10900000
1aaaab

#10910000
0aaaab

#10920000
r9.100016593933105 aaaaa
r-1.949999332427979 aaaae

#10960000
1aaaab

#10970000
0aaaab

#10980000
r9.150016784667969 aaaaa
r-1.899999380111694 aaaae

#11020000
1aaaab

#11030000
0aaaab

#11040000
r9.200016975402832 aaaaa
r-1.84999942779541 aaaae

#11080000
1aaaab

#11090000
0aaaab

#11100000
r9.250017166137695 aaaaa
r-1.799999475479126 aaaae

#11140000
1aaaab

#11150000
0aaaab

#11160000
r9.300017356872559 aaaaa
r-1.749999523162842 aaaae

#11200000
1aaaab

#11210000
0aaaab

#11220000
r9.350017547607422 aaaaa
r-1.699999570846558 aaaae

#11260000
1aaaab

#11270000
0aaaab

#11280000
r9.400017738342285 aaaaa
r-1.649999618530273 aaaae

#11320000
1aaaab

#11330000
0aaaab

#11340000
r9.450017929077148 aaaaa
r-1.599999666213989 aaaae

#11380000
1aaaab

#11390000
0aaaab

#11400000
r9.500018119812012 aaaaa
r-1.549999713897705 aaaae

#11440000
1aaaab

#11450000
0aaaab

#11460000
r9.550018310546875 aaaaa
r-1.499999761581421 aaaae

#11500000
1aaaab

#11510000
0aaaab

#11520000
r9.600018501281738 aaaaa
r-1.449999809265137 aaaae

#11560000
1aaaab

#11570000
0aaaab

#11580000
r9.650018692016602 aaaaa
r-1.399999856948853 aaaae

#11620000
1aaaab

#11630000
0aaaab

#11640000
r9.700018882751465 aaaaa
r-1.349999904632568 aaaae

#11680000
1aaaab

#11690000
0aaaab

#11700000
r9.750019073486328 aaaaa
r-1.299999952316284 aaaae

#11740000
1aaaab

#11750000
0aaaab

#11760000
r9.800019264221191 aaaaa
r-1.25 aaaae

#11800000
1aaaab

#11810000
0aaaab

#11820000
r9.850019454956055 aaaaa
r-1.200000047683716 aaaae

#11860000
1aaaab

#11870000
0aaaab

#11880000
r9.900019645690918 aaaaa
r-1.150000095367432 aaaae

#11920000
1aaaab

#11930000
0aaaab

#11940000
r9.950019836425781 aaaaa
r-1.100000143051147 aaaae

#11980000
1aaaab

#11990000
0aaaab

#12000000
r10.00002002716064 aaaaa
r-1.050000190734863 aaaae

