wave.vcd
$date
     Mar 02, 2017       17:54:47
$end

$version
 SystemC 2.3.1-Accellera --- Feb 11 2017 14:36:57
$end

$timescale
     1 ps
$end

$scope module SystemC $end
$var real    1  aaaaa  time       $end
$var wire    1  aaaab  robot_clock       $end
$var wire   32  aaaac  robot0.direction [31:0]  $end
$var real    1  aaaad  robot0.location(0)       $end
$var real    1  aaaae  robot0.location(1)       $end
$var wire   32  aaaaf  human0.direction [31:0]  $end
$var real    1  aaaag  human0.location(0)       $end
$var real    1  aaaah  human0.location(1)       $end
$var wire   32  aaaai  human1.direction [31:0]  $end
$var real    1  aaaaj  human1.location(0)       $end
$var real    1  aaaak  human1.location(1)       $end
$var wire    1  aaaal  obstacle       $end
$var wire   32  aaaam  direction [31:0]  $end
$upscope $end
$enddefinitions  $end

$comment
All initial values are dumped below at time 0 sec = 0 timescale units.
$end

$dumpvars
r0 aaaaa
0aaaab
b1 aaaac
r6.5 aaaad
r-0.8299999833106995 aaaae
b0 aaaaf
r6.5 aaaag
r-0.5 aaaah
b0 aaaai
r6.5 aaaaj
r-3.5 aaaak
0aaaal
b0 aaaam
$end

#60000
1aaaab

#70000
0aaaab

#80000
r0.05000000074505806 aaaaa
b0 aaaac
b11001100110011001100110011001100 aaaaf
r6.474999904632568 aaaag
b11001100110011001100110011001100 aaaai
r-3.424999952316284 aaaak

#140000
1aaaab

#150000
0aaaab

#160000
r0.1000000014901161 aaaaa
r6.449999809265137 aaaag
r-3.349999904632568 aaaak

#220000
1aaaab

#230000
0aaaab

#240000
r0.1500000059604645 aaaaa
r6.424999713897705 aaaag
r-3.274999856948853 aaaak

#300000
1aaaab

#310000
0aaaab

#320000
r0.2000000029802322 aaaaa
r6.399999618530273 aaaag
r-3.199999809265137 aaaak

#380000
1aaaab

#390000
0aaaab

#400000
r0.25 aaaaa
r6.374999523162842 aaaag
r-3.124999761581421 aaaak

#460000
1aaaab

#470000
0aaaab

#480000
r0.300000011920929 aaaaa
r6.34999942779541 aaaag
r-3.049999713897705 aaaak

#540000
1aaaab

#550000
0aaaab

#560000
r0.3500000238418579 aaaaa
r6.324999332427979 aaaag
r-2.974999666213989 aaaak

#620000
1aaaab

#630000
0aaaab

#640000
r0.4000000357627869 aaaaa
r6.299999237060547 aaaag
r-2.899999618530273 aaaak

#700000
1aaaab

#710000
0aaaab

#720000
r0.4500000476837158 aaaaa
r6.274999141693115 aaaag
r-2.824999570846558 aaaak

#780000
1aaaab

#790000
0aaaab

#800000
r0.5000000596046448 aaaaa
r6.249999046325684 aaaag
r-2.749999523162842 aaaak

#860000
1aaaab

#870000
0aaaab

#880000
r0.5500000715255737 aaaaa
r6.224998950958252 aaaag
r-2.674999475479126 aaaak

#940000
1aaaab

#950000
0aaaab

#960000
r0.6000000834465027 aaaaa
r6.19999885559082 aaaag
r-2.59999942779541 aaaak

#1020000
1aaaab

#1030000
0aaaab

#1040000
r0.6500000953674316 aaaaa
r6.174998760223389 aaaag
r-2.524999380111694 aaaak

#1100000
1aaaab

#1110000
0aaaab

#1120000
r0.7000001072883606 aaaaa
r6.149998664855957 aaaag
r-2.449999332427979 aaaak

#1180000
1aaaab

#1190000
0aaaab

#1200000
r0.7500001192092896 aaaaa
r6.124998569488525 aaaag
r-2.374999284744263 aaaak

#1260000
1aaaab

#1270000
0aaaab

#1280000
r0.8000001311302185 aaaaa
r6.099998474121094 aaaag
r-2.299999237060547 aaaak

#1340000
1aaaab

#1350000
0aaaab

#1360000
r0.8500001430511475 aaaaa
r6.074998378753662 aaaag
r-2.224999189376831 aaaak

#1420000
1aaaab

#1430000
0aaaab

#1440000
r0.9000001549720764 aaaaa
r6.049998283386231 aaaag
r-2.149999141693115 aaaak

#1500000
1aaaab

#1510000
0aaaab

#1520000
r0.9500001668930054 aaaaa
r6.024998188018799 aaaag
r-2.074999094009399 aaaak

#1580000
1aaaab

#1590000
0aaaab

#1600000
r1.00000011920929 aaaaa
r5.999998092651367 aaaag
r-1.999999046325684 aaaak

#1660000
1aaaab

#1670000
0aaaab

#1680000
r1.050000071525574 aaaaa
r5.974997997283936 aaaag
r-1.924998998641968 aaaak

#1740000
1aaaab

#1750000
0aaaab

#1760000
r1.100000023841858 aaaaa
r5.949997901916504 aaaag
r-1.849998950958252 aaaak

#1820000
1aaaab

#1830000
0aaaab

#1840000
r1.149999976158142 aaaaa
r5.924997806549072 aaaag
r-1.774998903274536 aaaak

#1900000
1aaaab

#1910000
0aaaab

#1920000
r1.199999928474426 aaaaa
r5.899997711181641 aaaag
r-1.69999885559082 aaaak

#1980000
1aaaab

#1990000
0aaaab

#2000000
r1.24999988079071 aaaaa
r5.874997615814209 aaaag
r-1.624998807907105 aaaak

#2060000
1aaaab

#2070000
0aaaab

#2080000
r1.299999833106995 aaaaa
r5.849997520446777 aaaag
r-1.549998760223389 aaaak

#2140000
1aaaab

#2150000
0aaaab

#2160000
r1.349999785423279 aaaaa
r5.824997425079346 aaaag
r-1.474998712539673 aaaak

#2220000
1aaaab

#2230000
0aaaab

#2240000
r1.399999737739563 aaaaa
r5.799997329711914 aaaag
r-1.399998664855957 aaaak

#2260000
1aaaal

#2300000
1aaaab

#2310000
0aaaab

#2320000
r1.449999690055847 aaaaa
r5.774997234344482 aaaag
r-1.324998617172241 aaaak

#2380000
1aaaab

#2390000
0aaaab

#2400000
r1.499999642372131 aaaaa
r5.749997138977051 aaaag
r-1.249998569488525 aaaak

#2460000
1aaaab

#2470000
0aaaab

#2480000
r1.549999594688416 aaaaa
r5.724997043609619 aaaag
r-1.17499852180481 aaaak

#2540000
1aaaab

#2550000
0aaaab

#2560000
r1.5999995470047 aaaaa
r5.699996948242188 aaaag
r-1.099998474121094 aaaak

#2620000
1aaaab

#2630000
0aaaab

#2640000
r1.649999499320984 aaaaa
r5.674996852874756 aaaag
r-1.024998426437378 aaaak

#2700000
1aaaab

#2710000
0aaaab

#2720000
r1.699999451637268 aaaaa
r5.649996757507324 aaaag
r-0.9499984383583069 aaaak

#2780000
1aaaab

#2790000
0aaaab

#2800000
r1.749999403953552 aaaaa
r5.624996662139893 aaaag
r-0.8749984502792358 aaaak

#2860000
1aaaab

#2870000
0aaaab

#2880000
r1.799999356269836 aaaaa
r5.599996566772461 aaaag
r-0.7999984622001648 aaaak

#2940000
1aaaab

#2950000
0aaaab

#2960000
r1.849999308586121 aaaaa
r5.574996471405029 aaaag
r-0.7249984741210938 aaaak

#3020000
1aaaab

#3030000
0aaaab

#3040000
r1.899999260902405 aaaaa
r5.549996376037598 aaaag
r-0.6499984860420227 aaaak

#3100000
1aaaab

#3110000
0aaaab

#3120000
r1.949999213218689 aaaaa
r5.524996280670166 aaaag
r-0.5749984979629517 aaaak

#3180000
1aaaab

#3190000
0aaaab

#3200000
r1.999999165534973 aaaaa
r5.499996185302734 aaaag
r-0.4999985098838806 aaaak

#3260000
1aaaab

#3270000
0aaaab

#3280000
r2.049999237060547 aaaaa
r5.474996089935303 aaaag
r6.425000190734863 aaaaj

#3340000
1aaaab

#3350000
0aaaab

#3360000
r2.099999189376831 aaaaa
r5.449995994567871 aaaag
r6.350000381469727 aaaaj

#3420000
1aaaab

#3430000
0aaaab

#3440000
r2.149999141693115 aaaaa
r5.42499589920044 aaaag
r6.27500057220459 aaaaj

#3500000
1aaaab

#3510000
0aaaab

#3520000
r2.199999094009399 aaaaa
r5.399995803833008 aaaag
r6.200000762939453 aaaaj

#3580000
1aaaab

#3590000
0aaaab

#3600000
r2.249999046325684 aaaaa
r5.374995708465576 aaaag
r6.125000953674316 aaaaj

#3620000
0aaaal

#3660000
1aaaab

#3670000
0aaaab

#3680000
r2.299998998641968 aaaaa
r5.349995613098145 aaaag
r6.05000114440918 aaaaj

#3740000
1aaaab

#3750000
0aaaab

#3760000
r2.349998950958252 aaaaa
r5.324995517730713 aaaag
r5.975001335144043 aaaaj

#3820000
1aaaab

#3830000
0aaaab

#3840000
r2.399998903274536 aaaaa
r5.299995422363281 aaaag
r5.900001525878906 aaaaj

#3900000
1aaaab

#3910000
0aaaab

#3920000
r2.44999885559082 aaaaa
r5.27499532699585 aaaag
r5.82500171661377 aaaaj

#3980000
1aaaab

#3990000
0aaaab

#4000000
r2.499998807907105 aaaaa
r5.249995231628418 aaaag
r5.750001907348633 aaaaj

#4060000
1aaaab

#4070000
0aaaab

#4080000
r2.549998760223389 aaaaa
r5.224995136260986 aaaag
r5.675002098083496 aaaaj

#4140000
1aaaab

#4150000
0aaaab

#4160000
r2.599998712539673 aaaaa
r5.199995040893555 aaaag
r5.600002288818359 aaaaj

#4220000
1aaaab

#4230000
0aaaab

#4240000
r2.649998664855957 aaaaa
r5.174994945526123 aaaag
r5.525002479553223 aaaaj

#4300000
1aaaab

#4310000
0aaaab

#4320000
r2.699998617172241 aaaaa
r5.149994850158691 aaaag
r5.450002670288086 aaaaj

#4380000
1aaaab

#4390000
0aaaab

#4400000
r2.749998569488525 aaaaa
r5.12499475479126 aaaag
r5.375002861022949 aaaaj

#4460000
1aaaab

#4470000
0aaaab

#4480000
r2.79999852180481 aaaaa
r5.099994659423828 aaaag
r5.300003051757813 aaaaj

#4540000
1aaaab

#4550000
0aaaab

#4560000
r2.849998474121094 aaaaa
r5.074994564056397 aaaag
r5.225003242492676 aaaaj

#4620000
1aaaab

#4630000
0aaaab

#4640000
r2.899998426437378 aaaaa
r5.049994468688965 aaaag
r5.150003433227539 aaaaj

#4700000
1aaaab

#4710000
0aaaab

#4720000
r2.949998378753662 aaaaa
r5.024994373321533 aaaag
r5.075003623962402 aaaaj

#4780000
1aaaab

#4790000
0aaaab

#4800000
r2.999998331069946 aaaaa
r4.999994277954102 aaaag
r5.000003814697266 aaaaj

#4860000
1aaaab

#4870000
0aaaab

#4880000
r3.049998283386231 aaaaa
r4.97499418258667 aaaag
r4.925004005432129 aaaaj

#4940000
1aaaab

#4950000
0aaaab

#4960000
r3.099998235702515 aaaaa
r4.949994087219238 aaaag
r4.850004196166992 aaaaj

#5020000
1aaaab

#5030000
0aaaab

#5040000
r3.149998188018799 aaaaa
r4.924993991851807 aaaag
r4.775004386901856 aaaaj

#5100000
1aaaab

#5110000
0aaaab

#5120000
r3.199998140335083 aaaaa
r4.899993896484375 aaaag
r4.700004577636719 aaaaj

#5180000
1aaaab

#5190000
0aaaab

#5200000
r3.249998092651367 aaaaa
r4.874993801116943 aaaag
r4.625004768371582 aaaaj

#5260000
1aaaab

#5270000
0aaaab

#5280000
r3.299998044967651 aaaaa
r4.849993705749512 aaaag
r4.550004959106445 aaaaj

#5340000
1aaaab

#5350000
0aaaab

#5360000
r3.349997997283936 aaaaa
r4.82499361038208 aaaag
r4.475005149841309 aaaaj

#5420000
1aaaab

#5430000
0aaaab

#5440000
r3.39999794960022 aaaaa
r4.799993515014648 aaaag
r4.400005340576172 aaaaj

#5500000
1aaaab

#5510000
0aaaab

#5520000
r3.449997901916504 aaaaa
r4.774993419647217 aaaag
r4.325005531311035 aaaaj

#5580000
1aaaab

#5590000
0aaaab

#5600000
r3.499997854232788 aaaaa
r4.749993324279785 aaaag
r4.250005722045898 aaaaj

#5660000
1aaaab

#5670000
0aaaab

#5680000
r3.549997806549072 aaaaa
r4.724993228912354 aaaag
r4.175005912780762 aaaaj

#5740000
1aaaab

#5750000
0aaaab

#5760000
r3.599997758865356 aaaaa
r4.699993133544922 aaaag
r4.100006103515625 aaaaj

#5820000
1aaaab

#5830000
0aaaab

#5840000
r3.649997711181641 aaaaa
r4.67499303817749 aaaag
r4.025006294250488 aaaaj

#5900000
1aaaab

#5910000
0aaaab

#5920000
r3.699997663497925 aaaaa
r4.649992942810059 aaaag
r3.950006246566773 aaaaj

#5980000
1aaaab

#5990000
0aaaab

#6000000
r3.749997615814209 aaaaa
r4.624992847442627 aaaag
r3.875006198883057 aaaaj

#6060000
1aaaab

#6070000
0aaaab

#6080000
r3.799997568130493 aaaaa
r4.599992752075195 aaaag
r3.800006151199341 aaaaj

#6140000
1aaaab

#6150000
0aaaab

#6160000
r3.849997520446777 aaaaa
r4.574992656707764 aaaag
r3.725006103515625 aaaaj

#6220000
1aaaab

#6230000
0aaaab

#6240000
r3.899997472763062 aaaaa
r4.549992561340332 aaaag
r3.650006055831909 aaaaj

#6300000
1aaaab

#6310000
0aaaab

#6320000
r3.949997425079346 aaaaa
r4.5249924659729 aaaag
r3.575006008148193 aaaaj

#6380000
1aaaab

#6390000
0aaaab

#6400000
r3.99999737739563 aaaaa
r4.499992370605469 aaaag
r3.500005960464478 aaaaj

#6460000
1aaaab

#6470000
0aaaab

#6480000
r4.049997329711914 aaaaa
r4.474992275238037 aaaag
r3.425005912780762 aaaaj

#6540000
1aaaab

#6550000
0aaaab

#6560000
r4.099997520446777 aaaaa
r4.449992179870606 aaaag
r3.350005865097046 aaaaj

#6620000
1aaaab

#6630000
0aaaab

#6640000
r4.149997711181641 aaaaa
r4.424992084503174 aaaag
r3.27500581741333 aaaaj

#6700000
1aaaab

#6710000
0aaaab

#6720000
r4.199997901916504 aaaaa
r4.399991989135742 aaaag
r3.200005769729614 aaaaj

#6780000
1aaaab

#6790000
0aaaab

#6800000
r4.249998092651367 aaaaa
r4.374991893768311 aaaag
r3.125005722045898 aaaaj

#6860000
1aaaab

#6870000
0aaaab

#6880000
r4.299998283386231 aaaaa
r4.349991798400879 aaaag
r3.050005674362183 aaaaj

#6940000
1aaaab

#6950000
0aaaab

#6960000
r4.349998474121094 aaaaa
r4.324991703033447 aaaag
r2.975005626678467 aaaaj

#7020000
1aaaab

#7030000
0aaaab

#7040000
r4.399998664855957 aaaaa
r4.299991607666016 aaaag
r2.900005578994751 aaaaj

#7100000
1aaaab

#7110000
0aaaab

#7120000
r4.44999885559082 aaaaa
r4.274991512298584 aaaag
r2.825005531311035 aaaaj

#7180000
1aaaab

#7190000
0aaaab

#7200000
r4.499999046325684 aaaaa
r4.249991416931152 aaaag
r2.750005483627319 aaaaj

#7260000
1aaaab

#7270000
0aaaab

#7280000
r4.549999237060547 aaaaa
r4.224991321563721 aaaag
r2.675005435943604 aaaaj

#7340000
1aaaab

#7350000
0aaaab

#7360000
r4.59999942779541 aaaaa
r4.199991226196289 aaaag
r2.600005388259888 aaaaj

#7420000
1aaaab

#7430000
0aaaab

#7440000
r4.649999618530273 aaaaa
r4.174991130828857 aaaag
r2.525005340576172 aaaaj

#7500000
1aaaab

#7510000
0aaaab

#7520000
r4.699999809265137 aaaaa
r4.149991035461426 aaaag
r2.450005292892456 aaaaj

#7580000
1aaaab

#7590000
0aaaab

#7600000
r4.75 aaaaa
r4.124990940093994 aaaag
r2.37500524520874 aaaaj

#7660000
1aaaab

#7670000
0aaaab

#7680000
r4.800000190734863 aaaaa
r4.099990844726563 aaaag
r2.300005197525024 aaaaj

#7740000
1aaaab

#7750000
0aaaab

#7760000
r4.850000381469727 aaaaa
r4.074990749359131 aaaag
r2.225005149841309 aaaaj

#7820000
1aaaab

#7830000
0aaaab

#7840000
r4.90000057220459 aaaaa
r4.049990653991699 aaaag
r2.150005102157593 aaaaj

#7900000
1aaaab

#7910000
0aaaab

#7920000
r4.950000762939453 aaaaa
r4.024990558624268 aaaag
r2.075005054473877 aaaaj

#7980000
1aaaab

#7990000
0aaaab

#8000000
r5.000000953674316 aaaaa
r3.999990463256836 aaaag
r2.000005006790161 aaaaj

#8060000
1aaaab

#8070000
0aaaab

#8080000
r5.05000114440918 aaaaa
r3.974990367889404 aaaag
r1.925004959106445 aaaaj

#8140000
1aaaab

#8150000
0aaaab

#8160000
r5.100001335144043 aaaaa
r3.949990272521973 aaaag
r1.85000491142273 aaaaj

#8220000
1aaaab

#8230000
0aaaab

#8240000
r5.150001525878906 aaaaa
r3.924990177154541 aaaag
r1.775004863739014 aaaaj

#8300000
1aaaab

#8310000
0aaaab

#8320000
r5.20000171661377 aaaaa
r3.899990081787109 aaaag
r1.700004816055298 aaaaj

#8380000
1aaaab

#8390000
0aaaab

#8400000
r5.250001907348633 aaaaa
r3.874989986419678 aaaag
r1.625004768371582 aaaaj

#8460000
1aaaab

#8470000
0aaaab

#8480000
r5.300002098083496 aaaaa
r3.849989891052246 aaaag
r1.550004720687866 aaaaj

#8540000
1aaaab

#8550000
0aaaab

#8560000
r5.350002288818359 aaaaa
r3.824989795684815 aaaag
r1.47500467300415 aaaaj

#8620000
1aaaab

#8630000
0aaaab

#8640000
r5.400002479553223 aaaaa
r3.799989700317383 aaaag
r1.400004625320435 aaaaj

#8700000
1aaaab

#8710000
0aaaab

#8720000
r5.450002670288086 aaaaa
r3.774989604949951 aaaag
r1.325004577636719 aaaaj

#8780000
1aaaab

#8790000
0aaaab

#8800000
r5.500002861022949 aaaaa
r3.74998950958252 aaaag
r1.250004529953003 aaaaj

#8860000
1aaaab

#8870000
0aaaab

#8880000
r5.550003051757813 aaaaa
r3.724989414215088 aaaag
r1.175004482269287 aaaaj

#8940000
1aaaab

#8950000
0aaaab

#8960000
r5.600003242492676 aaaaa
r3.699989318847656 aaaag
r1.100004434585571 aaaaj

#9020000
1aaaab

#9030000
0aaaab

#9040000
r5.650003433227539 aaaaa
r3.674989223480225 aaaag
r1.025004386901856 aaaaj

#9100000
1aaaab

#9110000
0aaaab

#9120000
r5.700003623962402 aaaaa
r3.649989128112793 aaaag
r0.9500043988227844 aaaaj

#9180000
1aaaab

#9190000
0aaaab

#9200000
r5.750003814697266 aaaaa
r3.624989032745361 aaaag
r0.8750044107437134 aaaaj

#9260000
1aaaab

#9270000
0aaaab

#9280000
r5.800004005432129 aaaaa
r3.59998893737793 aaaag
r0.8000044226646423 aaaaj

#9340000
1aaaab

#9350000
0aaaab

#9360000
r5.850004196166992 aaaaa
r3.574988842010498 aaaag
r0.7250044345855713 aaaaj

#9420000
1aaaab

#9430000
0aaaab

#9440000
r5.900004386901856 aaaaa
r3.549988746643066 aaaag
r0.6500044465065002 aaaaj

#9500000
1aaaab

#9510000
0aaaab

#9520000
r5.950004577636719 aaaaa
r3.524988651275635 aaaag
r0.5750044584274292 aaaaj

#9580000
1aaaab

#9590000
0aaaab

#9600000
r6.000004768371582 aaaaa
r3.499988555908203 aaaag
r0.5000044703483582 aaaaj

#9660000
1aaaab

#9670000
0aaaab

#9680000
r6.050004959106445 aaaaa
r3.474988460540772 aaaag
r0.4250044822692871 aaaaj

#9740000
1aaaab

#9750000
0aaaab

#9760000
r6.100005149841309 aaaaa
r3.44998836517334 aaaag
r0.3500044941902161 aaaaj

#9820000
1aaaab

#9830000
0aaaab

#9840000
r6.150005340576172 aaaaa
r3.424988269805908 aaaag
r0.275004506111145 aaaaj

#9900000
1aaaab

#9910000
0aaaab

#9920000
r6.200005531311035 aaaaa
r3.399988174438477 aaaag
r0.2000045031309128 aaaaj

#9980000
1aaaab

#9990000
0aaaab

#10000000
r6.250005722045898 aaaaa
r3.374988079071045 aaaag
r0.1250045001506805 aaaaj

#10060000
1aaaab

#10070000
0aaaab

#10080000
r6.300005912780762 aaaaa
r3.349987983703613 aaaag
r0.0500044971704483 aaaaj

#10140000
1aaaab

#10150000
0aaaab

#10160000
r6.350006103515625 aaaaa
r3.324987888336182 aaaag

#10220000
1aaaab

#10230000
0aaaab

#10240000
r6.400006294250488 aaaaa
r3.29998779296875 aaaag
r0.1250045001506805 aaaaj

#10300000
1aaaab

#10310000
0aaaab

#10320000
r6.450006484985352 aaaaa
r3.274987697601318 aaaag
r0.2000045031309128 aaaaj

#10380000
1aaaab

#10390000
0aaaab

#10400000
r6.500006675720215 aaaaa
r3.249987602233887 aaaag
r0.275004506111145 aaaaj

#10460000
1aaaab

#10470000
0aaaab

#10480000
r6.550006866455078 aaaaa
r3.224987506866455 aaaag
r0.3500044941902161 aaaaj

#10540000
1aaaab

#10550000
0aaaab

#10560000
r6.600007057189941 aaaaa
r3.199987411499023 aaaag
r0.4250044822692871 aaaaj

#10620000
1aaaab

#10630000
0aaaab

#10640000
r6.650007247924805 aaaaa
r3.174987316131592 aaaag
r0.5000044703483582 aaaaj

#10700000
1aaaab

#10710000
0aaaab

#10720000
r6.700007438659668 aaaaa
r3.14998722076416 aaaag
r0.5750044584274292 aaaaj

#10780000
1aaaab

#10790000
0aaaab

#10800000
r6.750007629394531 aaaaa
r3.124987125396729 aaaag
r0.6500044465065002 aaaaj

#10860000
1aaaab

#10870000
0aaaab

#10880000
r6.800007820129395 aaaaa
r3.099987030029297 aaaag
r0.7250044345855713 aaaaj

#10940000
1aaaab

#10950000
0aaaab

#10960000
r6.850008010864258 aaaaa
r3.074986934661865 aaaag
r0.8000044226646423 aaaaj

#11020000
1aaaab

#11030000
0aaaab

#11040000
r6.900008201599121 aaaaa
r3.049986839294434 aaaag
r0.8750044107437134 aaaaj

#11100000
1aaaab

#11110000
0aaaab

#11120000
r6.950008392333984 aaaaa
r3.024986743927002 aaaag
r0.9500043988227844 aaaaj

#11180000
1aaaab

#11190000
0aaaab

#11200000
r7.000008583068848 aaaaa
r2.99998664855957 aaaag
r1.025004386901856 aaaaj

#11260000
1aaaab

#11270000
0aaaab

#11280000
r7.050008773803711 aaaaa
r2.974986553192139 aaaag
r1.100004434585571 aaaaj

#11340000
1aaaab

#11350000
0aaaab

#11360000
r7.100008964538574 aaaaa
r2.949986457824707 aaaag
r1.175004482269287 aaaaj

#11420000
1aaaab

#11430000
0aaaab

#11440000
r7.150009155273438 aaaaa
r2.924986362457275 aaaag
r1.250004529953003 aaaaj

#11500000
1aaaab

#11510000
0aaaab

#11520000
r7.200009346008301 aaaaa
r2.899986267089844 aaaag
r1.325004577636719 aaaaj

#11580000
1aaaab

#11590000
0aaaab

#11600000
r7.250009536743164 aaaaa
r2.874986171722412 aaaag
r1.400004625320435 aaaaj

#11660000
1aaaab

#11670000
0aaaab

#11680000
r7.300009727478027 aaaaa
r2.849986076354981 aaaag
r1.47500467300415 aaaaj

#11740000
1aaaab

#11750000
0aaaab

#11760000
r7.350009918212891 aaaaa
r2.824985980987549 aaaag
r1.550004720687866 aaaaj

#11820000
1aaaab

#11830000
0aaaab

#11840000
r7.400010108947754 aaaaa
r2.799985885620117 aaaag
r1.625004768371582 aaaaj

#11900000
1aaaab

#11910000
0aaaab

#11920000
r7.450010299682617 aaaaa
r2.774985790252686 aaaag
r1.700004816055298 aaaaj

#11980000
1aaaab

#11990000
0aaaab

#12000000
r7.500010490417481 aaaaa
r2.749985694885254 aaaag
r1.775004863739014 aaaaj

#12060000
1aaaab

#12070000
0aaaab

#12080000
r7.550010681152344 aaaaa
r2.724985599517822 aaaag
r1.85000491142273 aaaaj

#12140000
1aaaab

#12150000
0aaaab

#12160000
r7.600010871887207 aaaaa
r2.699985504150391 aaaag
r1.925004959106445 aaaaj

#12220000
1aaaab

#12230000
0aaaab

#12240000
r7.65001106262207 aaaaa
r2.674985408782959 aaaag
r2.000005006790161 aaaaj

#12300000
1aaaab

#12310000
0aaaab

#12320000
r7.700011253356934 aaaaa
r2.649985313415527 aaaag
r2.075005054473877 aaaaj

#12380000
1aaaab

#12390000
0aaaab

#12400000
r7.750011444091797 aaaaa
r2.624985218048096 aaaag
r2.150005102157593 aaaaj

#12460000
1aaaab

#12470000
0aaaab

#12480000
r7.80001163482666 aaaaa
r2.599985122680664 aaaag
r2.225005149841309 aaaaj

#12540000
1aaaab

#12550000
0aaaab

#12560000
r7.850011825561523 aaaaa
r2.574985027313232 aaaag
r2.300005197525024 aaaaj

#12620000
1aaaab

#12630000
0aaaab

#12640000
r7.900012016296387 aaaaa
r2.549984931945801 aaaag
r2.37500524520874 aaaaj

#12700000
1aaaab

#12710000
0aaaab

#12720000
r7.95001220703125 aaaaa
r2.524984836578369 aaaag
r2.450005292892456 aaaaj

#12780000
1aaaab

#12790000
0aaaab

#12800000
r8.000012397766113 aaaaa
r2.499984741210938 aaaag
r2.525005340576172 aaaaj

#12860000
1aaaab

#12870000
0aaaab

#12880000
r8.050012588500977 aaaaa
r2.474984645843506 aaaag
r2.600005388259888 aaaaj

#12940000
1aaaab

#12950000
0aaaab

#12960000
r8.10001277923584 aaaaa
r2.449984550476074 aaaag
r2.675005435943604 aaaaj

#13020000
1aaaab

#13030000
0aaaab

#13040000
r8.150012969970703 aaaaa
r2.424984455108643 aaaag
r2.750005483627319 aaaaj

#13100000
1aaaab

#13110000
0aaaab

#13120000
r8.200013160705566 aaaaa
r2.399984359741211 aaaag
r2.825005531311035 aaaaj

#13180000
1aaaab

#13190000
0aaaab

#13200000
r8.25001335144043 aaaaa
r2.374984264373779 aaaag
r2.900005578994751 aaaaj

#13260000
1aaaab

#13270000
0aaaab

#13280000
r8.300013542175293 aaaaa
r2.349984169006348 aaaag
r2.975005626678467 aaaaj

#13340000
1aaaab

#13350000
0aaaab

#13360000
r8.350013732910156 aaaaa
r2.324984073638916 aaaag
r3.050005674362183 aaaaj

#13420000
1aaaab

#13430000
0aaaab

#13440000
r8.40001392364502 aaaaa
r2.299983978271484 aaaag
r3.125005722045898 aaaaj

#13500000
1aaaab

#13510000
0aaaab

#13520000
r8.450014114379883 aaaaa
r2.274983882904053 aaaag
r3.200005769729614 aaaaj

#13580000
1aaaab

#13590000
0aaaab

#13600000
r8.500014305114746 aaaaa
r2.249983787536621 aaaag
r3.27500581741333 aaaaj

#13660000
1aaaab

#13670000
0aaaab

#13680000
r8.550014495849609 aaaaa
r2.22498369216919 aaaag
r3.350005865097046 aaaaj

#13740000
1aaaab

#13750000
0aaaab

#13760000
r8.600014686584473 aaaaa
r2.199983596801758 aaaag
r3.425005912780762 aaaaj

#13820000
1aaaab

#13830000
0aaaab

#13840000
r8.650014877319336 aaaaa
r2.174983501434326 aaaag
r3.500005960464478 aaaaj

#13900000
1aaaab

#13910000
0aaaab

#13920000
r8.700015068054199 aaaaa
r2.149983406066895 aaaag
r3.575006008148193 aaaaj

#13980000
1aaaab

#13990000
0aaaab

#14000000
r8.750015258789063 aaaaa
r2.124983310699463 aaaag
r3.650006055831909 aaaaj

#14060000
1aaaab

#14070000
0aaaab

#14080000
r8.800015449523926 aaaaa
r2.099983215332031 aaaag
r3.725006103515625 aaaaj

#14140000
1aaaab

#14150000
0aaaab

#14160000
r8.850015640258789 aaaaa
r2.0749831199646 aaaag
r3.800006151199341 aaaaj

#14220000
1aaaab

#14230000
0aaaab

#14240000
r8.900015830993652 aaaaa
r2.049983024597168 aaaag
r3.875006198883057 aaaaj

#14300000
1aaaab

#14310000
0aaaab

#14320000
r8.950016021728516 aaaaa
r2.024982929229736 aaaag
r3.950006246566773 aaaaj

#14380000
1aaaab

#14390000
0aaaab

#14400000
r9.000016212463379 aaaaa
r1.999982953071594 aaaag
r4.025006294250488 aaaaj

#14460000
1aaaab

#14470000
0aaaab

#14480000
r9.050016403198242 aaaaa
r1.974982976913452 aaaag
r4.100006103515625 aaaaj

#14540000
1aaaab

#14550000
0aaaab

#14560000
r9.100016593933106 aaaaa
r1.94998300075531 aaaag
r4.175005912780762 aaaaj

#14620000
1aaaab

#14630000
0aaaab

#14640000
r9.150016784667969 aaaaa
r1.924983024597168 aaaag
r4.250005722045898 aaaaj

#14700000
1aaaab

#14710000
0aaaab

#14720000
r9.200016975402832 aaaaa
r1.899983048439026 aaaag
r4.325005531311035 aaaaj

#14780000
1aaaab

#14790000
0aaaab

#14800000
r9.250017166137695 aaaaa
r1.874983072280884 aaaag
r4.400005340576172 aaaaj

#14860000
1aaaab

#14870000
0aaaab

#14880000
r9.300017356872559 aaaaa
r1.849983096122742 aaaag
r4.475005149841309 aaaaj

#14940000
1aaaab

#14950000
0aaaab

#14960000
r9.350017547607422 aaaaa
r1.8249831199646 aaaag
r4.550004959106445 aaaaj

#15020000
1aaaab

#15030000
0aaaab

#15040000
r9.400017738342285 aaaaa
r1.799983143806458 aaaag
r4.625004768371582 aaaaj

#15100000
1aaaab

#15110000
0aaaab

#15120000
r9.450017929077148 aaaaa
r1.774983167648315 aaaag
r4.700004577636719 aaaaj

#15180000
1aaaab

#15190000
0aaaab

#15200000
r9.500018119812012 aaaaa
r1.749983191490173 aaaag
r4.775004386901856 aaaaj

#15260000
1aaaab

#15270000
0aaaab

#15280000
r9.550018310546875 aaaaa
r1.724983215332031 aaaag
r4.850004196166992 aaaaj

#15340000
1aaaab

#15350000
0aaaab

#15360000
r9.600018501281738 aaaaa
r1.699983239173889 aaaag
r4.925004005432129 aaaaj

#15420000
1aaaab

#15430000
0aaaab

#15440000
r9.650018692016602 aaaaa
r1.674983263015747 aaaag
r5.000003814697266 aaaaj

#15500000
1aaaab

#15510000
0aaaab

#15520000
r9.700018882751465 aaaaa
r1.649983286857605 aaaag
r5.075003623962402 aaaaj

#15580000
1aaaab

#15590000
0aaaab

#15600000
r9.750019073486328 aaaaa
r1.624983310699463 aaaag
r5.150003433227539 aaaaj

#15660000
1aaaab

#15670000
0aaaab

#15680000
r9.800019264221191 aaaaa
r1.599983334541321 aaaag
r5.225003242492676 aaaaj

#15740000
1aaaab

#15750000
0aaaab

#15760000
r9.850019454956055 aaaaa
r1.574983358383179 aaaag
r5.300003051757813 aaaaj

#15820000
1aaaab

#15830000
0aaaab

#15840000
r9.900019645690918 aaaaa
r1.549983382225037 aaaag
r5.375002861022949 aaaaj

#15900000
1aaaab

#15910000
0aaaab

#15920000
r9.950019836425781 aaaaa
r1.524983406066895 aaaag
r5.450002670288086 aaaaj

#15980000
1aaaab

#15990000
0aaaab

#16000000
r10.00002002716065 aaaaa
r1.499983429908752 aaaag
r5.525002479553223 aaaaj

#16060000
1aaaab

#16070000
0aaaab

#16080000
r10.05002021789551 aaaaa
r1.47498345375061 aaaag
r5.600002288818359 aaaaj

#16140000
1aaaab

#16150000
0aaaab

#16160000
r10.10002040863037 aaaaa
r1.449983477592468 aaaag
r5.675002098083496 aaaaj

#16220000
1aaaab

#16230000
0aaaab

